T_001mp3:6226b9c88dee8bafc7a5d5cbb84f2c5d:passed:20040825-175700:0.133189583
T_002aac:fac8884af42510b3bedb7745d701cc5e:passed:20040825-175700:0.124137007
T_003ac3:9598b02039556598cf1e5526df07c1ec:passed:20040825-175700:0.340856001
T_004aacmp4:fac8884af42510b3bedb7745d701cc5e:passed:20040825-175700:0.092819329
T_005flac:9c4fd4da2a597817649f52451ea7a62c:passed:20040825-175700:0.171927007
T_006oggflac:082148b9d9c948757a7c17749a54b045:passed:20040825-175700:0.173726681
T_007oggvorbis:dc15d227b20de54bfef4d06603e7f3a8:passed:20040825-175700:0.05531523
T_008avi_divx3_mp3:66a83393897d332c1b92a4f19db407c1:passed:20040825-175700:0.155754183
T_009realvideo_3:49b45e63e1d3fc7851e668dc0362721d:passed:20040825-175700:0.234740179
T_010realvideo_4:cf3427e89c71df7abe9c5352eedea19c:passed:20040825-175700:0.142366601
T_011srt:e4b3d5dcb6737c20972400bdfeebeff3:passed:20040825-175700:0.046294857
T_012ssa:60aa8a8d91280f31f0cc318879c75845:passed:20040825-175700:0.041814335
T_013vobsubs:674edc9996093cb55effebb257063287:passed:20040825-175700:0.053154297
T_014splitting_by_size:e161e65ce102fcc7b9fa58a3d4f6f43c-1be2ad28c315b349397e13f2050603c9:passed:20040825-175700:0.169182788
T_015splitting_by_time:fdd01d729d1b3b6ce54770ec3ba7d96b-4d99b77ad9bf2e5db487776462356c50:passed:20040825-175700:0.165397941
T_016cuesheet:94be787e23707e09899be173979b28c5:passed:20040825-175700:0.036974257
T_017chapters:ab28444eb5c0219ff0caafdf003a458c-f06eae665e0f7a153b87726caeb3e22e:passed:20040825-175700:0.099163922
T_018attachments:f7deaaf9e6c2c1d6a67e1be888b2a654-1c63a8650cf156bc971e7c65ebdb75ba:passed:20040825-175700:0.060948963
T_019attachments2:8b96ca0ecd8ddce505064f6c6e528cfa-9e74d40dcae4d346687e9bf92f677730-8b96ca0ecd8ddce505064f6c6e528cfa-67bdfbfefd68dde3a27828f95b3dcce7:passed:20040825-175700:0.294458921
T_020languages:21647742a2b2df2c070c8fe24dc2fce4:passed:20040825-234208:0.526580832
T_021aspect_ratio:c4a432fcd4add5102f961bd29d07d358-f3a36b0b8db2f4671ef68edf9b4da634:passed:20040825-234244:0.176283735
T_022display_dimensions:0d1ffa62bf5daeea8c4d3184c55ee6fb:passed:20040825-234339:0.100695621
T_023no_x:6bf693a5cf83de8ed809df352d9e90d0-32d11f25cee75a23fd286ed39938f92d-70dd5800c9812a8c6f294f849e9612a6:passed:20040825-234343:1.430989143
T_024sync_mp3:24bfca5f3b432e2d16487c1ca6e03589-32f29f4c76edb01f09c17a4c10a5d0d4:passed:20040825-234344:0.269644802
T_025sync_vorbis:b3ed2b5423463ccb6b01563604a4690f-a7ef3e391242e4d7f9d6a4e9f588a300:passed:20040825-234344:0.112725512
T_026sync_pcm:2dee1db846146f0a177f655da9ae024c-67212335cccc6e976dde7b93595b41ce:passed:20040825-234346:0.468002285
T_027default_track:86fc6f35d6818ce2983f83ba028ad020:passed:20040825-234348:0.613537442
T_028compression:470f5eefbfc3a6c59c1e1c887252102e:passed:20040825-234348:0.078682653
T_029link:all ok:passed:20040825-235039:0.925578898
T_032cues:b5398ca3ade4a0a3c935407db3a2f1b6:passed:20040825-235040:0.182090352
T_033timecode_scale:05db92204cd085f647cf392d3015cec8-95917bd683c7eb98f3412a95a92f425a-05db92204cd085f647cf392d3015cec8-95917bd683c7eb98f3412a95a92f425a:passed:20040825-235040:0.312093398
T_034ac3misdetected_as_mp2:99009bdb09f2ab78330efd8dfd8c7788:passed:20040920-100447:0.099427838
T_035X_vfw_video:b633b965d60e5d31c7601dda8e2b6379:passed:20040920-185358:0.177301623
T_036X_mp3:b3bb67d316e20da12926d5c1d628f6e5:passed:20040920-190109:0.15262689
T_037X_aac:66ccc4dde4eb9b3109b810b5a2be99ee:passed:20040920-190110:0.139465004
T_038X_ac3:6ca341797c5f93e273c8502f4d6f4fba:passed:20040920-185449:0.16127038
T_039X_flac:e0d2c003502fd5eddfc71f63d62b8072:passed:20040920-185252:0.154976229
T_041X_mp2:a2b37e3016b664cf96f75fa27d23b997:passed:20040920-190645:0.126296481
T_042X_vorbis:9d154345772ce7c701518869daf405b8:passed:20040920-190645:0.16345016
T_043X_wav:6a368be18ccaf3459b24056e6c2718f5:passed:20040920-190646:0.178264726
T_044X_srt:e811bbfaa7fabc16d14310db3092dbe3:passed:20040920-190646:0.154964113
T_045X_ssa:702cb49d23f4d1985471c1dc46053576:passed:20040920-190646:0.146457466
T_046X_chapters:a9255d40de93e2731aaead0a746e582f:passed:20040920-192348:0.020203655
T_047X_tags:26ad4ab0491d76d9fb6f57b4a4b35400:passed:20040920-192348:0.027990365
T_048X_chapters_ogmstyle:b59877767b804d167790e5784fb260bb:passed:20040920-192349:0.034877903
T_049ass:7ee7ddfd08d533288c5d6584eb660804:passed:20040929-113852:0.135413404
T_050X_ass:6aeb4aef55511282630e9f0e69777c46-d65638e96a393b01deb6d5e132d35552:passed:20040929-113852:0.21029879
T_051ogm:5478e0e1e0a5e8eba4a8e9d0fce46eff:passed:20071223-112225:0.265765757
T_200mp2_from_mp4:17b7fb3b32180f97ebefa2c9fc10567a:passed:20040917-185156:0.150951045
T_201avc_from_mp4_with_par:61987d59f754b4afe22bbad584965d4b:passed:20050125-224528:0.099806446
T_202avc_from_mp4_with_par_bframes:883997484150b33d6d4a08eed055f45a:passed:20050125-224635:0.080145607
T_203wavpack_with_correctiondata:faf9b86be9bc686aa7ac8df748c89bd4:passed:20050201-094411:0.154398689
T_204wavpack_without_correctiondata:c0851b54179d1d3325d6da432c9cf96c:passed:20050201-094414:0.042193967
T_205X_cuesheets:3b00b00c7d185137e30d7e95e3123d33-b3bb67d316e20da12926d5c1d628f6e5:passed:20050210-211853:0.220321306
T_206X_vobsub:93edcbea4729b197facd3048ee1445b8-f0b88ab55ffda1f9cc447a784829bcba-b4a3952ad77c8e9d48bf463ff5c88062-39e6f66ff3e0287735c4a577487de878-674edc9996093cb55effebb257063287:passed:20050211-231728:0.108832319
T_207segmentinfo:c771c9e218f0169bef03afbc9184ca97:passed:20050211-234856:0.136609742
T_208cat_and_splitting:e161e65ce102fcc7b9fa58a3d4f6f43c-9ecd06a5edd8b838e6a3cd1a2f9f6fcc:passed:20050306-152640:0.284716989
T_209ac3misdeetected_as_mpeges:c0ec3bdb9c53413d196dfcfe905421d2:passed:20050315-092851:0.126988029
T_210splitting_and_chapters:f2020a49200b662dfd81864b8af937a5-2d2e62b385d2aed1c4f5ccae62a1551f-af815644c21b2f222b388bee7d5571c4-49dc5da803994ea204f1d6449eb9a40c:passed:20050406-165104:0.330168467
T_211bug_segfault_reading_mp4:94bc2888944cf14a32cde6bc6d67ca18:passed:20050728-083402:0.139717571
T_212ssa_attachments:d99d87ace0b95907d7345e993a86111c-9a5a5ed80808c9d448ca5b44b640d8aa-2c8ef428ff00aeea74ee10d12a3702b5-63703180da67852a7ecf01c118869ed8-9a44e03fc30ef61a0ef066014a872646:passed:20050824-131320:0.97327624
T_213mp4_broken_pixel_dimensions:7876ded7de0b259441c9ee2ef1d8be34:passed:20050919-094831:0.167783191
T_214one_frame_avi:3d552bd8e473b182aa4f949bbd3e82a0:passed:20051004-192755:0.039489971
T_215X_codec_extradata_avi:0812a10d2d67cf7a74c6fd5128408a81-74ac799ad899f703cbb6c6654e5f9f51:passed:20051004-194707:0.052219855
T_216mp4_editlists:86d06542f114fceb6ea1c664b0fc5d61:passed:20051118-191453:0.106975045
T_217file_identification:f301f43cf937758f724b7e93f852b42b-ec38690afad809e3c34e8b10901c6950-1c5f404508ab7ad7754cf4100e8ff4c5-cf6010997916ead3c56e5913f1fbd141-dcaa49cb0a5daa4d343e74b3c268c894-28dcbec43cb2dbf63f23cf88dd4f7985-9deb4d4105ad8bef8a09933e59775794-7260e9290e58ae3e702e8af162deeecc-53259f181b2153fd62ce8d5981bef688-700e74dcc7ae61064d9ac54d95afebf1-7c6fb6145548d4411f96857949c96788-a95da0823737b2e6d34e638a007dd4ce-7ab19171942fc96858d046c022780f1e-03f9cc6642c8bb71e937b1e02af7e726-b534aae2da2fc87e9f910717259f6462-cfa455a14d3755bf64082b04b712be8b-6dd9ede82b86274d64efe9680cd427f5-5a97b110b8ea0b50584ee759f25c4fad-a072268580c8c65474ea6c8ee4f48c8d-d8aa5ca981a3b201935b70819012efa6-aabd820a44e7f3d18106339b65994c53-212db91754ac44fe123eafb2a581b06c:passed:20051209-180815:1.882517588
T_218theora:0805c9249d51e4977816e93225c86017-60b04133e34e981adb27b6fcaae038c6:passed:20060428-105054:0.392912102
T_219srt_short_timecodes:0c613e64f973f970f979ed8da3b68290:passed:20060926-112658:0.117747192
T_220ass_with_comments_at_start:0155e6ca3613ce1d9a1ea3a08505b804:passed:20060926-120101:0.382410266
T_221aac_lc_misdetected_as_sbr:ed72ede40cfdb7f5370c063234bbc3ec:passed:20061103-174221:0.046026107
T_222stereo_mode:b8a397b90c9fac756592cc2a67ecef01-ce36d1c23cf44e9106a63a14044f863c-62a9f9565f33c7e78ab6012056b4a622-3a692d10f46f025572bda3d0a0c7ec1a:passed:20061107-092251:1.221005171
T_223ra_cook_keyframes:7046d783bf390652c7d9019ac890316a:passed:20061228-150947:1.335998563
T_224dts:f8643a00b12fc334c9b5a98008cd77f1-aa17c87aa5289c47bc9a8d29d14b092b:passed:20070206-174735:2.808364528
T_225dts_in_wav:1cb04948b66050b71119fa1f6253e665-67fd3d4d93dcb3f9799c0d2e529c3487:passed:20070206-174726:1.066354749
T_226h264:442cbbeeab8241934ebea60119569f43:passed:20070208-103558:6.088832141
T_227h264_with_garbage:c699d04d61dcb064089a38e16a358213:passed:20070208-103656:5.660631896
T_228h264_no_idr_slices:49430d03473016f017294784b2a48e01:passed:20070426-103130:3.516955837
T_229rav3_in_rm:a6f4f3e81ebe1e647e8c6ed60f339a84:passed:20070619-220659:0.054850494
T_230h264_nalu_size_len_change:2686e5e14f01081c04a6a7e269c1f654-883997484150b33d6d4a08eed055f45a:passed:20070622-103843:0.273132819
T_231X_ac3_header_removal:6ca341797c5f93e273c8502f4d6f4fba:passed:20070623-111240:0.172661551
T_232h264_changing_sps_pps:d22be93c88e8ec7c8a08cdbeb03d42d6:passed:20070815-211934:4.982966207
T_233srt_with_coordinates:961eefadcbe8f3356e6459e6f84ed669:passed:20070819-203105:0.279280932
T_234avi_aac_codecid_0x706d:1d23800a200f1203e023957f5dd2d6d5:passed:20080223-174500:1.065188599
T_235wav_fmt_chunk_length:58b2760bde605b3e9e29362b154830db:passed:20080226-134540:0.199256803
T_236ac3_in_mov:711cb368e46681579cd2015f9343cde9:passed:20080229-103912:0.469764724
T_237ac3_in_wav_iec61937_mode:9598b02039556598cf1e5526df07c1ec:passed:20080229-152103:0.345607428
T_238ac3_in_wav_acm_mode:363763e1d1abbbe37fc94b38c7545c86:passed:20080229-152339:0.064912703
T_239aac_with_id3_tags:0afa5cbb72db120a0516750823f9f97a:passed:20080309-170151:0.268856001
T_240dts_hd:728ff6b2938ba00e8f673b089e4c17b9-22420b5693ab2c583f2e6d305c4e3b74:passed:20080309-170749:1.508422156
T_241ac3_with_id3_tags:9598b02039556598cf1e5526df07c1ec:passed:20080309-183547:0.390141882
T_242ogm_with_chapters:840ec2d37a993e2da78c51b05d7c80f0:passed:20080420-204932:0.052564939
T_243avi_with_audio_garbage:1215e3b52c5995ca036dc493ac6daf78:passed:20080913-185346:0.114602033
T_244iconv_missing_character:1d37838489d6fdddc5f8900cda7fe0e3:passed:20081004-213713:0.262006208
T_245srt_timecode_formats:9c18ac1a1b9ce223d187997e372fece7-9c18ac1a1b9ce223d187997e372fece7:passed:20081202-141604:0.255023139
T_246theora_pixel_aspect_ratio:919eddfd78cad73aeb310becaf698a75:passed:20081205-174857:0.061985381
T_247attachment_selection:7f9071238701e64125942f5dfbb0ff6c-9440a39073c2f37521b65fbcc93df255-e9672860568c9d77920c6eac7cea6589-9a8bd196066d89572ee7c8a723b72331+5c6ff6d25088b44de303562e756d84a7:passed:20090228-191612:0.113510024
T_248mpeg2:2f830c160dd7207954d63a97a5eeff19-8c2c41b88044f126fd877f03c4ed2c39:passed:20090531-132819:8.128150931
T_249mpeg2_no_codecprivate:7c99d88c89db2d1ff2ab32cb5218d500:passed:20090531-132821:1.45695982
T_250tag_selection:7df4a33972a0df406a270a979638566c-3839c0f9ab836f447d3f7e46d07600a5-834a9435fb7c16bce624b2343fec7111-0a83cb11b7e124a5e847ae5f5b957632-fb48d5f3ba54440f3f7a55fc25a47659-fb48d5f3ba54440f3f7a55fc25a47659-b472ee0c719c6b3cffab3ab0c695d4b0:passed:20090531-205640:1.287172749
T_251vc1_truehd_eac3_from_evo:140a296c5c4986f3970240dcf305abf1:passed:20090606-220945:1.173449174
T_252native_mpeg4:9f8a098b15ebc80f8a942400bf5b2621:passed:20090620-163119:2.522718252
T_254avi_with_subs:f5b61db928492f3cc7daaa531b73b9cd-f5b61db928492f3cc7daaa531b73b9cd-73f4578ab7447a1cdd50ea5fee224d24-ab2050ac89f47a21ecc818de8fa393ee-c92570f4ee52fbdcb504d65777cdb1c6:passed:20091025-104213:0.968078866
T_255aspect_ratio_display_dimensions:0[4254x815-4254x815-1212x2424-1800x360-3600x360]1[3600x360-3600x360-1212x2424-1800x360-3600x360]2[7200x360-7200x360-1212x2424-1800x360-3600x360]:passed:20091025-164606:1.057248654
T_256cropping_stereo_mode:0[S2-1-2-3-4]1[S1-5-6-7-8]:passed:20091025-204854:0.218668206
T_257theora_v1_1:819708ca00b65533f0fcf8cd33e39bb1-3eaa3a9dea9f0d65ba8db44d3b23078d:passed:20091217-134109:1.539746231
T_258srt_negative_timecodes:efa030165abbabc5cd6e448afd7cf84f:passed:20091226-220350:0.368968267
T_259mp4_chapters_text_trak:3e619d7ec77e8395eda20d91382df5cc-b0088ab9141d65cb180f453e0c828428:passed:20091230-221546:1.219113249
T_260version_numbers:ok:passed:20100120-131720:0.108200756
T_261line_endings_in_text_files:2532c53c754979954678d72ebdb62eed-2532c53c754979954678d72ebdb62eed-2532c53c754979954678d72ebdb62eed:passed:20100315-151719:0.26785501
T_262level1_with_size_0:9f1e3ab566065832e4681409ff99d563:passed:20100407-131350:0.043549684
T_263ass_missing_text_in_format:2640dcc0b1ae1e80baf05e17abfab5ca-273e8eb33584686874e52a94a0304cf7:passed:20100411-181436:0.133828607
T_264avc_es_from_lavf_with_native_codecid:e4ab4a58981e6d9daa8fdb1aa59ac31e:passed:20100427-123025:0.163914551
T_265mkvinfo_clusters_with_unknown_size:41880f5b309b2e108e03a7de59756372:passed:20100522-213708:0.127393107
T_266mkvmerge_clusters_with_unknown_size:e637cfcc8c870056caba874dfb2c361b:passed:20100523-154308:0.04514363
T_267mkvextract_clusters_with_unknown_size:b994ef83db70b5193696121cf1399adf:passed:20100523-154920:0.056976575
T_268X_vp8:4c87a179863ff43cf03cea5fe783f2a0:passed:20100527-140446:0.041033789
T_269X_vp8_without_default_duration:b856286cdf487bbe617676516e786cd1:passed:20100527-143214:0.51982276
T_270ivf:3c6cfad069d4f6d753817ffa0078f799-6bbde9b178cb75641c7d49b620e55e7d-7a9e9278ab6666e88a6a166bb1e19c12:passed:20100527-145644:0.954837308
T_271ogg_flac_1_1_1:f93e5f1be167231dfbec2b51c1fcfd93:passed:20100528-150526:0.086412512
T_272dirac:5f861ba8f22a7bb2dd948f0537e945c5:passed:20100530-144232:0.447649471
T_273pgssup:681ccd3692b4029badc93bd10260b076-681ccd3692b4029badc93bd10260b076-dbba8798fb51a54a748a0a5a7a85f452:passed:20100618-122332:0.133077321
T_274h264_in_nalus_in_avi:10261b2918816f37dd0e74fdb1cbbe2e:passed:20100629-090725:0.046335705
T_275srt_mixed_eol_styles:94eff456ca28bd361d6ab2249cd8abf5:passed:20100706-090848:0.206637187
T_276h264_without_nalus_in_avi:b615472ac47272153dd3fb492c473776:passed:20100706-224102:0.331406412
T_277display_dimensions_fixing_aspect_ratio_usage:ce1ead0a7ba54fa5f8d7e0e8a4740a54-8943cddc4d5de87b9a241ca2cf244ef0-674b503621638a9b7402f1ff7c2d53ce:passed:20100718-201627:2.064719998
T_278turning_off_compression:e826b2b2bf890b6f626be3aa340c40cf-e826b2b2bf890b6f626be3aa340c40cf:passed:20100728-121842:0.662304078
T_279packet_queue_not_empty_ivf:31e63aa6aa063c61a3a89f2c97a9f855:passed:20100805-230439:0.107456716
T_280replace_one_byte_with_ebmlvoid:534413c422857270cad77d5ac0bc8500:passed:20100824-201249:0.21509374
T_281idr_after_non_idr_not_recognized:5c416d1b01eb988303e4287592042d89:passed:20100828-194029:1.222172253
T_282mkvextract_error_on_non_existing_file:true:passed:20100901-230139:0.032414822
T_283no_video_on_avi:6226b9c88dee8bafc7a5d5cbb84f2c5d:passed:20100919-111902:0.063610211
T_284merging_chapter_editions_when_appending:4ad54e46e2db2eb1ad2d89c1ea8cdef0:passed:20100919-234941:0.511757623
T_285h264_misdetected_as_mp3:2c96b8512a261824fe8f1d7a5d672458:passed:20101031-105119:1.775024905
T_286vp8_in_ogg:002212d3475357b5628df13809ccb337:passed:20101222-113225:0.864785274
T_287mkvextract_exit_codes:2-2-2-2-2-2:passed:20101222-120655:0.106237695
T_288identify_files_by_amg:26ab0db90d72e28ad0ba1e22ee510510:passed:20110308-151817:0.051036594
T_289wav_unsupported_formattag:3:passed:20110314-133958:0.036326038
T_290seven_bytes_aac_codec_data:20a2305da62648d8ab8c220ffc6957b9:passed:20110415-123546:0.329324553
T_291waveformatextensible:wav-avi:passed:20110415-124159:0.166486733
T_292avi_aac_706d_privsize_huge:fe843ba5ca7d6f5946dc4b316991765e:passed:20110422-152313:0.094766072
T_293aac_adif_misdetected_as_video:3:passed:20110426-091956:0.031538701
T_294vobsub_negative_delay:6d1519411eead9da9f2cf2699349ef41:passed:20110523-204847:1.854001452
T_295vc1_rederiving_frame_types:854768236a154078b19edaf8287f0f1b-f59fc88bb6c4bdb86d64de6fe0ea0489:passed:20110525-205715:9.235213171
T_296video_frames_duration_0:cf5d899409a3f9f66c574198d9de5957:passed:20110709-143914:0.376760947
T_297mpeg_transport_streams:308321bbf09a172c5b879251661a1631-c122f3e933e780128f0d86c0d9542e52:passed:20110913-112636:10.36149529
T_298ts_language:+eng+eng+eng+chi:passed:20110915-221140:0.024501446
T_299ts_ghost_entries_in_pmt:0_video_MPEG_4p10_AVC_h.264_5500_1440x1080/1_subtitles_SubRip_SRT_eng_5503/2_subtitles_DVBSUB_eng_5504/3_audio_AC_3_eng_5501_2_48000:passed:20110917-004553:0.032277672
T_300ts_dts_duplicate_timestamps:4b57b0976c7658478afe86198b7833c5:passed:20110918-154508:1.728558428
T_301ts_pgssub:bd9e003c32c1d7138252953f535e781d:passed:20110918-154732:1.701870051
T_302pat_pmt_only_once:659aa04d44404941846a381f8daf1bda:passed:20110927-222121:0.300545156
T_303mpeg_ts_eac3_pmt_descriptor_tag_0x7a:0_video_MPEG_4p10_AVC_h.264_220_1920x1080/1_audio_E_AC_3_qaa_231_6_48000/2_audio_E_AC_3_fre_230_2_48000/3_subtitles_DVBSUB_fre_240:passed:20111008-150823:0.033890898
T_304eac3_pes_private_but_no_pmt_descriptor_tag:d3cb1cec039661f4c7469c1b84a07eb7:passed:20111009-113137:2.713279639
T_305ui_locale_en_US:23026ac2ed9767541e89f2261bcf8b60-0136434e2e22ebcc806ee944cdd2b853:passed:20111016-192531:0.067743615
T_306ui_locale_de_DE:5c2281373b0f5d9d7145cca6b2391db7-fe29d5dd8da942a9deb4aac92b2f0514:passed:20111016-192531:0.06032807
T_307ui_locale_es_ES:3f230a5da62a4650a8874bde6cb3c0e7-343c6efff52830d0484900df270904fb:passed:20111016-192531:0.061216592
T_308ui_locale_fr_FR:e2ca7f37e22b01b97a3895258fa753e8-8f926266b31c591810d92b84e2bbaa81:passed:20111016-192531:0.139937014
T_309ui_locale_it_IT:a668340c643c0975e8df7977ffbdacde-77b6e7e8c32e689260f73dc7e0a2295f:passed:20111016-192531:0.075701663
T_310ui_locale_ja_JP:bbd7198ee176df0a36ae6818471e4204-77e6f10efd219fb9ae9e79254cee32b6:passed:20111016-192531:0.070177897
T_311ui_locale_lt_LT:23026ac2ed9767541e89f2261bcf8b60-0136434e2e22ebcc806ee944cdd2b853:passed:20111016-192531:0.054643172
T_312ui_locale_nl_NL:df36526d5fccc2757166fc6cf2455060-82da9222562a7c5746bf76ec6ae82c1e:passed:20111016-192532:0.061745399
T_313ui_locale_ru_RU:5088d75c3b717402d6eb007ef3214800-4fc9b34008f1904490a9deb33c9666a2:passed:20111016-192531:0.104817853
T_314ui_locale_tr_TR:046cdd24b14713d3499f23bd495ba339-bb9429ad44d4aaa0b62095eb9d114145:passed:20111016-192530:0.059882769
T_315ui_locale_uk_UA:2ebc5b0a91b22727c89c8c64776fe851-4fc9b34008f1904490a9deb33c9666a2:passed:20111016-192532:0.109602541
T_316ui_locale_zh_CN:7cd5526d5dece2b8dfecedebc0a3ee49-399cd00f7f8a16f553c448c97b560a70:passed:20111016-192532:0.064900123
T_317ui_locale_zh_TW:bc8f71d88cc0d3e6bbedcb3ce424230f-27340131e24ce59462010130cc5ba6dd:passed:20111016-192531:0.049242036
T_318ui_locale_invalid:ok:passed:20111016-192531:0.021014802
T_319wav_with_pcm_detected_as_dts:f3c673c07bbb0e9ffbe19d80ccfacc30:passed:20111016-224416:0.059853624
T_320ts_aac:9dccf9239305868964627208d461d614:passed:20111022-140411:0.693145547
T_321vc1_without_markers:a731772af2037763295c57ebf0905a90:passed:20111104-003839:1.584477691
T_322propedit_track_headers:785209f2dc35ad6177bea2ca6e43198f-ffc1ef67684cc9dd8626a4a7521e72ee-d2d12b7f8d1b036e4da6d0905b6107f0-4527b0737d21e47b6daa820806980abc-7bb13b6b10f063d944c4218df86c2f19:passed:20111203-152145:0.677404829
T_323propedit_segment_info:785209f2dc35ad6177bea2ca6e43198f-0baf1cb46e7d365580b51aa4452551d6-d6cd21681b8544aa730744f128d46fd7:passed:20111203-152845:0.425794709
T_324propedit_chapters:785209f2dc35ad6177bea2ca6e43198f-a9255d40de93e2731aaead0a746e582f-493859725ffbe8bf65cfd397e26a7c90-ae788bbd0580dd01d10672a46e3be84d-9ff842a7f02fe26ef95313b626be83b3-b6aafbfe2bc4902f3187031a71730f8d-8bd193e3b93c3900f2dbbddd0290ca5a-eb251b6ec5c49dc0caf28aa28bb5fda3-8594e3734741654285cc5ce5e48f3e29-d41d8cd98f00b204e9800998ecf8427e:passed:20111203-154502:0.736303091
T_325propedit_tags:785209f2dc35ad6177bea2ca6e43198f-26ad4ab0491d76d9fb6f57b4a4b35400-cf5d35e5df0055c835c2998d69237c81-3a66efe256067a1cc6c08a130e915f66-cf5d35e5df0055c835c2998d69237c81-3a66efe256067a1cc6c08a130e915f66-704c6f50d8563790132f2213d3bf512a-930b89d9247818492f9e529e52fe97ce-74438375c40b7c3a77fbc894ee7d3acc-9c36e36e5810b0c42501f19c4d2c8b0f-74438375c40b7c3a77fbc894ee7d3acc-9c36e36e5810b0c42501f19c4d2c8b0f-dc4f9c9e12a584f12ad4c5f181a5d731-14f4960f62029211155dd9b137e532a1-e126ac5e6a97297f4ee14cfd648e1e33-d41d8cd98f00b204e9800998ecf8427e:passed:20111203-160727:1.314514241
T_326mpeg_ps_mpeg_audio_layer4:4c4909b0cd1a3610ecff1f6a62551538:passed:20111207-224511:1.505513342
T_327vp8_frame_type:0abecf2083e6fe403450aace989df415:passed:20111207-233304:0.089263543
T_328dts_detected_as_ac3:54a70e8af0f47411ac5af3b3f87cfabd:passed:20111229-192324:0.090561076
T_329X_timecodes_v2:51d1e61178c7fa2b654d1be71576113c-473bb854441388700e42ee8b4d21c61c-f531fa64a457eb3204e8f09235b039ed-646b73b730d4bd09d13a56bc861ee659-409743510ede469f8d2bf1a098ff36f8-473bb854441388700e42ee8b4d21c61c-4473fffbc0dec00c3955f861a6880b22-3b3c2e7c2470ca550acb1e913311daef-a80f23069cd692e2e8700a6729d6d290-c04e13b7e74a8d6ee694ea2cfba79009:passed:20120105-202451:1.08041896
T_330dts_detection:c56f3d4e73bf9e4cde889b876945d574:passed:20120107-210130:1.935366715
T_331read_buffer_underflow:d6cf667deec3ba08b0a79d98c1e369df:passed:20120125-232902:0.322029153
T_332eac3_misdetected_as_avc:8941b49cf758bbf984346839add68640:passed:20120131-145550:0.208997135
T_333wavpack_with_correction:a9d6590516393bccea1a8e016afe4752-e33897409384ca5fd8ed5e497f8c3883+37f802510b43b2ab4bd7d8356a7ac606-ok:passed:20120131-164845:0.221105789
T_334mp4_audio_encoder_delay:42ac98114f6f84337d266356c206a1e1:passed:20120206-100443:0.085778798
T_335ui_locale_cs_CZ:71fab8df9e8e061badc87c06cf36f544-559226417b561a886c15a8235ba6575f:passed:20120206-191406:0.154320123
T_336pgs_misdetected_as_dv:5d06a530451d6834661657d022fde221:passed:20120222-121642:0.038684911
T_337vc1_es_sequence_header_not_at_start:8df881bf4a10104497c2a01d218bd402:passed:20120222-140257:5.388890792
T_338h264_width_height_pixl_format_non_420:2d51f5fb8b45d7e17dc27c15777aca23-ok:passed:20120222-153143:1.938343358
T_339eac3_dependent_frames:7f63e290ac672b4867dcbb49b21255b7:passed:20120226-133623:0.201626612
T_340m2ts_interlaced_h264_timecode_every_second_frame:0cba59af50a95df2c858084665996936:passed:20120304-163131:25.31191697
T_341vob_interlaced_mpeg2:a1fd99c0464ca2c60d23de77c5c187d2:passed:20120304-163313:5.303087276
T_342m2ts_interlaced_h264_from_arte:7dbe3e4ad57d403cf362872bb94f5a12:passed:20120304-165917:4.5443942
T_343m2ts_interlaced_h264_match_of_the_day:b5688367da53da20847203d2fc626042:passed:20120304-171453:3.858753744
T_344microdvd_recognition:ok:passed:20120304-175209:0.114439546
T_345flag_enabled:4c202cd826f518b64f1ebae8f264e097-63864db3dbec3df4bd69b11b856cd936:passed:20120304-181150:0.410047671
T_347h264_misdetected_as_ac3:537265c51b742fc56cb2ffc561a53c63:passed:20120305-160017:1.722170533
T_348srt_negative_timecodes2:cada073fe4099024989ae336634372f6:passed:20120307-115726:0.120842971
T_349h264_interlaced_default_duration:9c8bd446ba958ff29e85a1ae1e9a8b00-569dd78af8d6a05847eca5893d68615a-569dd78af8d6a05847eca5893d68615a-ca2ab4fc1a712da3c833f197e758f8f0:passed:20120307-184849:7.012794592
T_350h264_progressive_default_duration:d9d45e8a57c36ae891c9cd4c16c9e9a3-43a0f7d5b4d68a056d7f089d3687f841-1994f82f6a5db8ee4d9858ccfb1abc5d:passed:20120307-193604:4.699052694
T_351h264_vfr_with_timecode_file:9711d93c189dac7d85e6ab57f03886cf-185a47ed1ab41497d5ff300e7300b26b-185a47ed1ab41497d5ff300e7300b26b-185a47ed1ab41497d5ff300e7300b26b:passed:20120307-200246:6.711029448
T_352timecode_scale_auto_libmatroska_assert:c56db736e290f36def70eafd061367e3-c56db736e290f36def70eafd061367e3:passed:20120308-083800:2.620912493
T_353ac3-from-ts-with-missing-tcs-with-non-zero-first-tc::new:20120312-134345:0.0
T_353ac3_from_ts_with_missing_tcs_with_non_zero_first_tc:f63499a9f53a6330d1ef1b15885f8ab8:passed:20120312-134456:1.302275752
T_354h264_60000_1001i_def_duration_60000_1000:cd5bcaa77dce152df5e8c337642a2f44:passed:20120314-090846:0.349677199
T_355chapters:ca4d3898191ee6af0e5eadf6ca1ce6a3-71c931b6406d69a5c3dd73b2c22de0d4-8f04173a5b9fccb8d1b0055b1c0e46c9-3dd915d4b6dceebb591f19438fd7a725-58b7571dcce9f7f8a4e9371996269f53-ok-ok-ok-ok-ok-ok-ok-ok-ok-ok-ok-ok-ok:passed:20120324-121601:0.346666482
T_356tags:8fb2419ac80f5b83d689c7ace6846b6c-f3e8d1aca260d98f32c62e4df6d8f0c3-3828fb1618e2c44002e91c548997a7f9-847008d894e4d3f7f50f9078836f1adb-52bfd2261c6b88729ae2b63670266fdb-db983eb022cd8b4a94004fc77fd1c6e1-ok-ok-ok-ok-ok-ok-ok-ok-ok-ok-ok-ok-ok-ok:passed:20120324-121752:0.430471559
T_357segment_info:a283f5e65d79f197f44443b4551a184e-5289930cda1806c6f380912d68503344-ok-ok-ok-ok-ok-ok-ok:passed:20120324-122844:0.227807646
T_358usf:c57150efb37908136e2c9a05944bc307:passed:20120329-142144:0.051754089
T_359split_parts:8b92da271094cc0c4f9b1bf2e18fffb0+be5109dca5c6c320fbeea541988aaf28+ok-99361a846d02d22cdb92be46c111fa07+ok-a184b4d8b0e2a7b08d9cd8fda0c8d599+ok-7d742ff17390c9d2ac1b6b48a98a3dd4+efd3a41480420418a96cbe94a441fc25+a935b9cf77666456b97c289a50027d82+0e3cefcd1cec5777932f72b5bfcb0f82+7ad5293c0624d7749fb34e605a0c1cb0+39e46843c96e3241d5b47a269cc41beb+b85d7d9116d10f252bbe84034747d8dd+ok-6fcaa4f9f09baf4f7eec935da1d98eff+ok-21ca39e7f06d14857200c14bb9a77ac6+ok:passed:20120331-133448:2.321768368
T_360X_chapters_hex_format:8f04173a5b9fccb8d1b0055b1c0e46c9-3cb1e24e85bb5f52ac18824fbc0a8a1e:passed:20120404-152038:0.047282116
T_361file_concatenation:VTS_01_2.VOB+VTS_01_3.VOB-f3cd92fa636c30f1c9b32c20b3cd6fd9-f3cd92fa636c30f1c9b32c20b3cd6fd9-83d5dad6a240d49338c7b1fa61134a8e-83d5dad6a240d49338c7b1fa61134a8e-83d5dad6a240d49338c7b1fa61134a8e-08bb60fb1a9ce3c59ace12171dd797cc-5c22a4635072b5741af326abc920ce6a-da4453bd956e136ef7e22bbcd16ec2e8-da4453bd956e136ef7e22bbcd16ec2e8-da4453bd956e136ef7e22bbcd16ec2e8-da4453bd956e136ef7e22bbcd16ec2e8-d111df1fc0939b3a1ae71a561ec10009-0c7f3ea496afa11c3da4a20ba17fd1e5-308321bbf09a172c5b879251661a1631-308321bbf09a172c5b879251661a1631:passed:20120406-144928:18.646532342
T_362xtr_avc:9c8bd446ba958ff29e85a1ae1e9a8b00-49ae33bdb1e43de90886bc2ac6410c35:passed:20120416-153515:1.811589633
T_363srt_colon_decimal_separator:5791a00a83069a8d5366a3d5a495ea32:passed:20120520-180625:0.032379535
T_364qtmp4_track_with_empty_chunkmap_table:01f2fcdaa819284748cc23a9511baa32:passed:20120605-223925:0.168392001
T_365qtmp4_constant_sample_size:faf291bc4bdd8f8da77938392332629f-00cda75acebd6df52eb557f0e9df7665:passed:20120605-230823:0.675175697
T_366srt_with_space_in_timecode_arrow:b1a3af7e800ae1c49617607f098584cd:passed:20120801-132204:0.121731174
T_367vob_80ms_delay_by_b_frames:302e6c8888879c418ef8cf2fa60b4d9e-4c9aa4746cb0be6b0ffb34e2f0916bc5:passed:20120801-182507:0.106468603
T_368alac:fde70c906b8cd3e28f3575244e79b938-1433e8ea0e390194401ed98b9be910e2-9ea991541b5ed1e1a4c546a46c9e441a-0384839a77ab5b73bfb5cf52b2b77cb1:passed:20120805-160128:0.596006157
T_369mpeg_ts_timecode_overflow:c24f29ef74c056a6f2befa2752462c2f:passed:20120807-120810:5.138361997
T_370propedit_attachments:d0ea1ae62e6c03b6fd94dfdef04bc662-d0ea1ae62e6c03b6fd94dfdef04bc662-379b25eb1a7c5e7063dcbf728baaf5cc-d0ea1ae62e6c03b6fd94dfdef04bc662-379b25eb1a7c5e7063dcbf728baaf5cc-d0ea1ae62e6c03b6fd94dfdef04bc662-379b25eb1a7c5e7063dcbf728baaf5cc-d0ea1ae62e6c03b6fd94dfdef04bc662-a386f80a44c1b8e872046008a387dbd6-d0ea1ae62e6c03b6fd94dfdef04bc662-c59586fa7c9edf78b507a695d0d5dedc-d0ea1ae62e6c03b6fd94dfdef04bc662-f47770636e3df388a448b789048d27b6-d0ea1ae62e6c03b6fd94dfdef04bc662-29638e92ba30ee70e5466c0946293c33-d0ea1ae62e6c03b6fd94dfdef04bc662-2fd944f7d90a0699cf2fbad4e51a41d7-d0ea1ae62e6c03b6fd94dfdef04bc662-22bd864f7175a7922cef3a3f47f28845-d0ea1ae62e6c03b6fd94dfdef04bc662-6bf640cd1ed0661fc48f10b86e21367a-d0ea1ae62e6c03b6fd94dfdef04bc662-6bf640cd1ed0661fc48f10b86e21367a-d0ea1ae62e6c03b6fd94dfdef04bc662-ee7af7f509cd4139f7d703fd8d1a5e13-d0ea1ae62e6c03b6fd94dfdef04bc662-f825ed614eb58b719bec5442e68cb96a-d0ea1ae62e6c03b6fd94dfdef04bc662-ff3ccd6afd8930b79013cb26b58d9d91-d0ea1ae62e6c03b6fd94dfdef04bc662-ff3ccd6afd8930b79013cb26b58d9d91-d0ea1ae62e6c03b6fd94dfdef04bc662-5197c499bbeda8f1b2618df289e2b639-d0ea1ae62e6c03b6fd94dfdef04bc662-e91a6fa8136bf1b73e824a66858c900f-d0ea1ae62e6c03b6fd94dfdef04bc662-04d023033b0dd997cf551aa488a9f42d-d0ea1ae62e6c03b6fd94dfdef04bc662-3fc2ced96e970d83e278dac680042efa-d0ea1ae62e6c03b6fd94dfdef04bc662-c0f334034eb4f022df2e85a2bc952169-d0ea1ae62e6c03b6fd94dfdef04bc662-70386c637637728a90b68e809f425c21-d0ea1ae62e6c03b6fd94dfdef04bc662-b8305eb305bb244c31637e403a182aa2-d0ea1ae62e6c03b6fd94dfdef04bc662-a77214906a4daa48d019c57c2b6e315b:passed:20120902-110003:0.573238036
T_371doc_and_read_version:4+2-4+2-3+2-3+2-2+2-3+1-3+1-1+1:passed:20120927-110447:1.294617251
T_372ui_locale_eu_ES:cd0927f0c4248d14b97336097ee36c2e-8ef1b15c1dcfa5a888fab14cdeec0cda:passed:20120930-150340:0.096365772
T_373reading_linked_seek_heads:d36d01066cd1c3357512abfca85610ff:passed:20121202-120608:0.373994416
T_374extract_chapters_with_ebml_void:ok:passed:20121202-173807:0.038620679
T_375keep_pcm_timecodes:3265b9b014361ba53acd24c3914d043d:passed:20121208-154352:0.307748809
T_376append_empty_tracks:057a59eacc7a5f027d23f4131e5350f3-2a3f4d32671c78808964dc857d6b73cd-0714db3fb44926815e4a1150d315051e:passed:20121208-190510:1.733345246
T_377mp3_skip_id3_properly:dcaa1c4c7f6939e1d23144865e94ac60:passed:20121216-212310:0.050076417
T_378deprecated_iso_639_2_codes:hrv+rum+srp-d1ac5b90a510f0549bf5a1ea5345dce1:passed:20121217-171624:0.080978498
T_379flv:082c824773b182fff4a2723c893b783f-3ae1ab67b4cdfc09cee368c73d19c7a6-27da0e1fc525578b8bb51e43ced5d110-3ae1ab67b4cdfc09cee368c73d19c7a6-8c239be5988fbe75dee2fe79a2043cb0-05012f67db89108bc11cb00debd7a2e8-dbcfb79e723a9ebed33c33ead95e6930-05012f67db89108bc11cb00debd7a2e8-a5b44e8fe13e555a1c5276ef45fd4924-7c8beb04c1c6b8735f10ffd87332ceb3-562d14c30ebcd4bbb6a1de5e88d83b84-7c8beb04c1c6b8735f10ffd87332ceb3:passed:20121223-134722:1.700533979
T_380split_frames:6e5f95edd012bb5c1613e09d4615cbd6+7b7282c1fa68c357782d5df8add9964f+ok-6e5f95edd012bb5c1613e09d4615cbd6+7b7282c1fa68c357782d5df8add9964f+ok-6e5f95edd012bb5c1613e09d4615cbd6+7b7282c1fa68c357782d5df8add9964f+ok:passed:20121223-232902:1.685037717
T_381X_alac:9ea991541b5ed1e1a4c546a46c9e441a-ed3dd47220947f8130974268f0af281d:passed:20121225-133740:0.075635313
T_382split_chapters:11f5ad2045ada48b2064d26a2f231a23+454c1cca9832855818f11234d93751d5+ok-4545b3bcc1a5f768d2070da0f9c940dd+4eca9e0f7f46435e33df2a2993b93b55+ok-da96597a121aa7c7662d2c68d1361c6e+9b3a8fd888f264aee4b0377034f86f91+5bbab1a231cf1a849a3fcbe8537b0335+ba2079ffc8a047c5a7bb7742bcdd33c5+fb0982ee028f9e68c80546b3d94cf72e+5130017c839cc805396183aea2b281c7+b076c62a5c0bfed7717cd7227fc13453+08d8e959a0c98009181f5599c8c842e9+23402992494eec08b976c3d15f28d8ac+6f89ee702cd211126488c34a4281346b+8f3e9d8a71899d032c61747598af5a64+848bc9f3ae89d277850b3ba1359e01e0+38bd37652e73f8331a4109feb8f0d546+dbcc6715743d2baa0aa69adb8c5a5522+1a5ffd2414a59961674e36e82fa04278+5538aca71060fc859c405f1a205fd1bb+abeccbfad126c6172c3d32f9781a0727+ok-4f944b2d43db12f3ae1919bd1ecc6698+6ada8e1de9ee588469fa0230a74b5515+d03bf35dd55c6db3335dc03c8673fa64+ac6b01687575dbec2103920725c4b641+a5d7387c6606351e255c516372e867e1+bb724274ebcb50ba0f4dc3922e782e27+dcf310bec0b0299cf33f0a0a8a2bb21f+80cad0911d542e773923e9243079816c+447323517315233cf602308a40415323+1f8d7ed1f52b6bf4c0043ff663ce5f3b+bea2e59243aa734de84104ccc03425cf+8e79c9011a27c84753b77905b608f2ad+aca4eb5da13d75f38242f516e035ee4b+980d374fdcd4abc5b2db988312cbcffe+71244103b291da1145c9b8147f2e6ff0+756862903c73d4b764a345cb670d6381+12b9241136227742a113a3aa7779e117+ok:passed:20121227-202501:1.734270221
T_383mp4_text_track_subtitles:fedfd2e0b9c21c282c6c94ecb6787999:passed:20121228-231519:0.102549441
T_384vobsub_in_mp4:43c39b0cbc665138e67672790ebb6343:passed:20130112-201109:0.674617717
T_385split_parts_frames:8b92da271094cc0c4f9b1bf2e18fffb0+be5109dca5c6c320fbeea541988aaf28+ok-5214fbdf355040d80b54bbb33050e7e1+ok-c367307ba235a9c7e52d32b716ec19b1+ok-a5df35b97a9a8b65cfb32f79c95b395d+ok-d8c0eb2075787e3c7f9a1aa07ab7bdd1+ok:passed:20130114-224502:1.413443333
T_386flv_vp6f:f77cc5811ad330b5b6fa4cd4eea6c0a5:passed:20130121-223417:0.187881106
T_387mp4_free_invalid_size:ed72ede40cfdb7f5370c063234bbc3ec:passed:20130216-003333:0.04107827
T_388split_parts_and_chapters:96910cb4ae5eafdab0074208169ce8f1-806f0f64d9a0cea3efd6174961491e05-83b8af412746f57f783e84387a5551d1:passed:20130216-203522:0.690018077
T_389mpeg1_in_ps_misdetected_as_avc:e1ef97cbf58be69b78755557545502e5:passed:20130224-132738:1.205560654
T_390timecode_info_on_resync:BAD+BAD:passed:20130318-185621:0.115461517
T_391fix_bitstream_frame_rate:94a52df7aa5685f384303727e4ada15c:passed:20130329-114522:0.460370742
T_392avi_audio_chunk_size_0:adfb3c2835e28d6afee53ca6ec9b5e79:passed:20130331-134751:0.893777097
T_393aac_audiospecificconfig_0channels:53a879b99711441f618c0b7be99e958a:passed:20130413-214142:0.041190089
T_394flv_negative_cts_offset:bf40c4c9f6e4f1adc95f7494f7e4fd86:passed:20130414-115331:0.123013461
T_395remove_bitstream_ar_info:e988c4ae9c3d1c78896224a7d7abccdb-61987d59f754b4afe22bbad584965d4b-9761c5a24fae28bf575c6d54c138ec7f-31027851ec83358b75d9ba9c24b5d34a:passed:20130427-171243:0.334408574
T_396X_pcm_mono_16bit:95057ffa66cd4ca5faf764826159f4ce:passed:20130624-200214:0.055106028
T_397mpeg_ts_broken_pes_track_detection:6c86ba5edb1aabbf99672efe00149139:passed:20130624-220549:1.12831027
T_398flv1_no_pixel_dimensions:54b05a6f69959a3fa463e3fc052dff24:passed:20130624-225648:0.103188723
T_399h264_append_and_default_duration:738d476b5a20f76b02ae8e8490e51bf4:passed:20130627-195946:5.558958754
T_400opus_experimental:3c1a13f265d5f11e8e32167c7a877a30:passed:20130703-213929:0.055921025
T_401opus_experimental_remux:87252b03dd655cda93b6b18be694bd19:passed:20130703-213932:0.06857043
T_402opus_output_order:7211919e01277242bdd68b0224800e0c:passed:20130705-115856:0.252820697
T_403opus_remux_final:9bac956d304083cf8f3f66870661418b:passed:20130705-135811:0.068533558
T_404opus_extraction:0aba264a50870d5cd62d8d12543898bd:passed:20130915-201931:0.050758351
T_405packet_ordering_and_default_duration:e79ba5cbc7dde04778762955e38c0eb0:passed:20130916-211719:0.258475566
T_406ogm_chapters_ansi_encoded:551a2222c97731ce98204c6bad166ed1-0d43af11ed18cde5696ae0a6f2376ebd-afe5a2eba19cec9e06622bff495f6cd5:passed:20131002-230255:0.275447568
T_407empty_tag_and_chapter_files:error-error-error:passed:20131018-202312:0.131204626
T_408utf_encodings_with_bom:e4b3d5dcb6737c20972400bdfeebeff3-e4b3d5dcb6737c20972400bdfeebeff3-e4b3d5dcb6737c20972400bdfeebeff3-e4b3d5dcb6737c20972400bdfeebeff3-e4b3d5dcb6737c20972400bdfeebeff3:passed:20131019-155216:0.215939391
T_409mux_vp9:61da12a2c3c2674e89798e6accb3fb5c-f9b3f35610f01a404b820bdabafb0fa3:passed:20131019-195820:0.071892447
T_410extract_vp9:e3978b967924105c21a43c5f617e9ac6:passed:20131019-200643:0.033861429
T_411ui_locale_pt_PT:7378e1146862dcb96f11caa91d33c5cb-344b51e9ae6fe2d8ce60fef18ee0e7d1:passed:20131026-154124:0.073196901
T_412ui_locale_pl_PL:5d790fb95cbc647fe5cec87e7618758a-93a2fd965d92b40b7ba59a037caca0b3:passed:20131026-154845:0.077632905
T_413memory_resize_nonfree_smaller:258b60544462d60e0a57c10772fcd402:passed:20131102-115507:0.066828215
T_414vc1_no_sequence_headers_before_key_frames:c792fcd9716ac3153321df40c46f53f5:passed:20131115-164756:0.133015738
T_415create_webm:926985908bac4796b340a819e79fdd04-21737cdaf8daacbb5dcc5c69f425b6ce-8ba1b32bd84baef269181ea74cf06f0d-415d91e89e995b02b695e127617d2d8a-AAC@ok-AC-3@ok-ALAC@ok-DivX@ok-h.264/AVC@ok-Dirac@ok-DTS@ok-FLV@ok-MP3@ok-MPEG1@ok-MPEG2@ok-PCM@ok-RV4@ok-SSA@ok-PGS@ok-SRT@ok-USF@ok-VC-1@ok-WavPack4@ok:passed:20131218-221942:0.832721732
T_416dts_in_mp4:7e5395c0ce820c59da46a25ad059c778-47836dd750680a9033b45492f1027b04:passed:20131218-231435:1.398112245
T_417mkvextract_tracks_at_end_of_file:b3bb67d316e20da12926d5c1d628f6e5:passed:20131229-122704:0.04690235
T_418ac3_frame_size_0:e4d1089d23399df8ca60b51f248ef050:passed:20131230-233047:4.297033387
T_419mov_pcm_sample_size_1_sample_table_empty:c32b73411873f62a039dcde01359a2a2:passed:20140101-221519:0.052961521
T_420matroska_attachment_no_fileuid:e636dea45e5160307d30f17055ef66ec-552b6bfab098f531c54131dfc76eadaa-d656255457340062c91160fc962f249f:passed:20140111-200918:0.092631489
T_421svq3_from_mov:32c8e6fe207c26a6e6ff7ac0cc7c9bdb:passed:20140112-124559:0.195365669
T_422ac3_rederive_track_parameters_from_bitstream:f368971127b2626396ed24c155b3f2f3:passed:20140215-162358:0.231506136
T_423deprecated_iso639_codes:58802636edef1bce9f2e84a4183d0341-good-934de47c1182dc61f88b77dbde9ef2af-good-53a8cebace286bd4a22b93243f1aac79-good-11f1f9d4ef34b6f712bfc57b42af2acf-good:passed:20140222-185414:0.243526271
T_424avc_recover_point_sei_before_second_field:d1f1996329291e971f9f9ca1d7287974:passed:20140304-190254:1.581374408
T_425mpeg_ts_timestamp_outlier:e32095973dd47d0434c0979b1fc8f9b0:passed:20140305-203603:2.509694471
T_426extract_write_bom_only_once:a9255d40de93e2731aaead0a746e582f-a9255d40de93e2731aaead0a746e582f:passed:20140310-195606:0.0
T_427ui_locale_pt_BR:8719aedc77a0435129c79e3a061642bf-344b51e9ae6fe2d8ce60fef18ee0e7d1:passed:20140418-103113:0.143370167
T_428mkv_misdetected_as_ass:6c6239ac91056d0905948d3bccc0f5ea:passed:20140518-155446:0.033341203
T_429track_statistics_tags:66a83393897d332c1b92a4f19db407c1-34867c725af8849ad777be663b3e795f-fcbaf0a6cfe5108001318efa2e91cdda-4bca6757ec11c8a1b990be33b5c36d88:passed:20140524-194544:0.635343822
T_430cues_multiple_blocks_same_timecode:73eb5421b5b312b5a0836d0e27d526e0:passed:20140525-173642:0.033316759
T_431ssa_comments_exclamation_mark:85e8cf74d8f091d84067a4b6830c0a46:passed:20140618-232324:0.072735677
T_432concatenate_two_ac3_files:ad0bdef4f567ebc39a397d53a5f58bfc:passed:20140727-124637:0.15390456
T_433matroska_no_track_uid:f59312a64dc16213404ce79f0cd8ec06:passed:20140809-211544:0.043556355
T_434mkvpropedit_no_track_uid:99631d7c0f79faf45a37696dae506b21-1a97554c50c754b3de2aab56e29e004e:passed:20140809-213018:0.046441804
T_435mp4_edit_list_duration_uses_global_time_scale:00cda75acebd6df52eb557f0e9df7665:passed:20140905-183027:0.096674624
T_436extract_ssa_extradata_after_events:8be4c4af0a2d65826071aee718ec44e8:passed:20140906-090602:0.054263072
T_437ac3_from_avi_with_garbage:b7698547caa290a3e0b58f4835c5716a:passed:20140908-144311:0.075599921
T_438pcm_in_vob:371d651efc2778b868c67d1df3c1a060:passed:20140917-213731:1.216717009
T_439pcm_in_m2ts:1175d8e40f6bdc97b2cf4b9908a48d81-b68bfef955855a923eb99dc6e30e4ebc:passed:20140917-222633:4.736872644
T_440chapter_display_language_default_value:2a176734a3f9afd951d8904511b1cb7b:passed:20140929-142306:0.021103552
T_441mkvmerge_mp4_big_endian_pcm:4e272d7ba2b35803c9352e84e55815fb:passed:20141104-190420:0.278181073
T_442ui_locale_ca_ES:b8b1ebb4a729cd34bac943b4a7eec4d5-efc218c7d73104f27e852a4d6b66412e:passed:20141105-201811:0.070000034
T_443hevc_keep_user_data:e54e5818b706704405600359f573c9e6:passed:20141105-202533:1.308417598
T_444pcm_statistics_from_packaged_sources:4099f792aad1f16559c86f19cf4f51e8-4099f792aad1f16559c86f19cf4f51e8-20f16e90d6877679fc0deada17ab520b-e1393c882ba264186dadc4b1848dba24-+++:passed:20141205-220805:0.604375231
T_445teletext_subs_missing_second_line:89313de5f917c4168b8bc6ca06843ee5:passed:20141210-224823:5.420908642
T_446mkvinfo_output:556c05257634151205dce15c1f6bf8b5-9b9e2ab146ddc67ca8a49e24f32076aa-087009adbdb3c95ab7cc744991aa3fb0-8a7f452083781857dfc3dcd3656b5679-aa1faca6831b18e05f2b49ac37293c4b-d094b2ab02d07703bc249a427633c698-5275582393d8afcb8357213b866ab594-7639702f60604d61b3cf74429fb4578d-cb75de00d1c1d271a46ad1677a503a79-e303caf638c16fe29be869bbd471510c-2809a9d622454f41e278d3d39498b889-6319a624cd4c931b77b1b00ddd86d36a-bf0548bedcd8f0da3ec7b87e91dc0b5e-3afc38c26a3b128aa9fa82367d700604-7ea1de28c9ee55f519ec0f347214026b-57fc8fa08ba41f107cfe78a1395ed0ac-457d18b25b2d8084dbdf7597b579f2d3-a9923b8cfeed255285385b188ab35506-5c1a518f89d13bd89f7f3dbc4c92604e-a5576b60abc82db8c8bd1a60fabbac2a-0c04051ff82e590d488f920ac9da1ed5-e07d256f2ec4f8b84d91b802c48a4db2-e6145855a76d9b541f7b2ac149fa9f20-2ed395387b6121c9b62b7d4b1923545f:passed:20141216-165433:1.564089101
T_447mkvinfo_rounded_timecodes:409a5ad59ec67427b7983822a63ff0b7-90c50241a6ae5f1a9501b0a2f547893b-49e54c693c4b697758b1fa2d3b09ee56:passed:20141216-172642:1.712081143
T_448mpeg_ts_with_hevc:9c38022a0e4bd7b274bf9a7fce4e9fc8:passed:20141216-181650:1.133097273
T_449segfaults_assertions:error-2bacc50e6e28fb2a92d2abf2583405f5-ok-2684a2b671068c517bafd3a2cfb2aaca-844bf63953a1f092ccc04de6ad1d59d1-2cb3ca6660beb8cda381ab171c570ee9-error-error-ok-74082d0c0a8dec7982380cf39891a782-8c3b7c54ad1ad9b18146845f77d1a3e4-2684a2b671068c517bafd3a2cfb2aaca-2684a2b671068c517bafd3a2cfb2aaca-0fcbd3964d934f3e6dbc194aabbca3ae-68015c77e684e0bc2d45361759a5de65-0fcbd3964d934f3e6dbc194aabbca3ae:passed:20141219-195127:0.830949441
T_450aac_loas_latm_in_mpeg_ts:04b18b527038f06a31d80b00a9f13026:passed:20141229-210738:0.515183095
T_451aac_loas_latm_raw:adb44c882e5b21d8b25ddf08cb682bbc:passed:20141230-155351:0.589778873
T_452mkvinfo_track_statistics_frame_order:2d51f5fb8b45d7e17dc27c15777aca23-d99eb49c2458e0ed583c11033d838eaf:passed:20141230-182428:1.579605124
T_453mp4_with_hevc:b94a01a67d8b2a13abe2c6c90dc94d27:passed:20141231-125834:0.046223562
T_454mp4_dash:7b6363c7711024e28b7521c0d86ad29e-9148a92d6f109183b287a6459b76f9fa:passed:20141231-214733:0.429881173
T_455he_aacv2_ps:3314ac77b6e3d6cf1ef74d4bcf885ff2:passed:20150101-152553:0.075964546
T_456tta:53f3baca1c61012f7beb0a318dcc12e4-a3f2a14c15e709027c05445ac91b0659:passed:20150103-140714:0.148697252
T_457mpeg_ts_all_pmts_with_crc_errors:175ffeffc1eae4253e5528d6e42d08ff:passed:20150104-133628:1.586689715
T_458pcm_big_endian_in_matroska:2668d687e9c768241ca3c828bc57cab6:passed:20150202-193826:0.080955865
T_459append_chapters_same_uid_with_sub_chapters:27ca45ae6a653dcb6974a6b75a3afc71:passed:20150202-214722:0.072671062
T_460truehd:762f9b649e70c8b8a738c9ebdc85c002-762f9b649e70c8b8a738c9ebdc85c002-2ad8e25e512323c3bd9bfc3e854ffcb6-b0af0ef756afcb02f6e4e279751148c7-36ac6e4a7f555143ac25ff883b55336e-2ad8e25e512323c3bd9bfc3e854ffcb6:passed:20150210-130114:10.654546371
T_461truehd_from_mpeg_ts:de799d1707c4f479ef618c90ad3d74b1-186af1d6591953b176338a86fb1a9d9b-a3b1cdf344d01919ea772cce0577fd5a:passed:20150212-134650:2.270775532
T_462dtshd_reduce_to_core:728ff6b2938ba00e8f673b089e4c17b9-a59035b625bd919f954e009bbea0b597-a59035b625bd919f954e009bbea0b597:passed:20150212-223839:1.367529862
T_463a_ms_acm_with_track_tags:1a67cad97a47b61af770b7644cc8870d-dedaa5b8830a4b1d47c1437dd4a7928d:passed:20150218-142924:0.139369636
T_464mp4_mp3_track_sampling_rate_0:f6a82675817804e606206823e02a43d4-0958cd2b2e9f12285ebd949397a9a634:passed:20150223-190257:0.939161518
T_465propedit_gaps_of_130_bytes:d29c6a18e3e50373aacc94ff7084e2bf:passed:20150223-210006:0.085134008
T_466mkvextract_avi_8bpp:2327a134fc9d96098b29af8f69bdbf1d:passed:20150223-213412:0.034601052
T_467mpeg_ts_eac3_type_0xa1:d56b0346ec11ea177093528fc0e66b08:passed:20150223-221854:0.595330952
T_468extract_cues:fff17f77874552de8954508bb7cd9745-ef7da9b9235b4c354f8c14ce92765c8a+c70480d9df999ed01449e9a9bfa51b01:passed:20150225-202605:0.373426759
T_469avi_keyframes:4d4a8366b3acd7fc2fb54c14252b6c62:passed:20150225-223922:0.055489645
T_470avi_idx1_video_not_00db:22aede11b59b4718d7a0f9a41550d4ff-7b27debd950f2bddf4044421056590c9-08429bdabdbf92da2e20fb33804b3b6f-8eb208e3012263d1d572baa9a61a770c-132a8d43a6c08f426cd900b57210bf39-c7b1b72bad900a2b8d7183d841e44d8b:passed:20150227-215810:0.225420656
T_471mp3_bit_id3_tag_at_start_of_file:40804ad27ed34bd61cdb37d350f1aa79-159eed95756d3087fa07186d2b93e1a9:passed:20150303-181432:1.035125698
T_472flv_headers_signal_no_tracks:6f47ef5e36d1ae8eb0714f4f4d01b591-f3cc6e3c8217f46f3bc326a8e4726d9b:passed:20150309-182340:0.14645163
T_473quicktime_cinepak_pcm:cebd9532ef2ec36e4f62c98ece36df7b-3c99c0cce4584ba7cbf918e74e05f5a9:passed:20150309-204710:0.096409655
T_474quicktime_rpza:70caac9aeeb17f715fd0baa940028352-f20ad5896bda5e4720773428454143cb:passed:20150311-192934:0.095698493
T_475quicktime_ima4_audio:5e146c86b4bb457d8adef5cffb2ccb55-0a4e41591c2db7c58a170144bbfdd6fc-a7127d99e2f7b94ab6ef0574db97d039:passed:20150313-221230:0.210750769
T_476hevc_append_and_set_default_duration:ee7fe08a27c67eafbb987efbaa2fc227:passed:20150323-142700:2.506816653
T_477ui_locale_sv_SE:23026ac2ed9767541e89f2261bcf8b60-938dc06fdd5c54793ae6c09b8a0268b1:passed:20150324-123356:0.061418784
T_478ui_locale_sr_RS_latin:e82297022868c560a80c41513033ef39-2cdbfc8453e871653f2243f91e7a8fcb:passed:20150829-204735:0.0
T_479dts_7_1_channels:8235c3e3eec61994087c9d935be423eb-d643836988de9855439b5fc6a5e8be9d:passed:20150325-221521:0.561800769
T_480dts_express:fab552f19ddeda70262975a2c8444a89-e3cb60535bfb0884ca7bb07ac61939de:passed:20150326-093608:0.611162252
T_481dts_hd_high_resolution:35747ac8f3fae17d93f72b56bcbe76e8-4e41cdfefff6d1a2da32cc7bf6ec52d9:passed:20150326-184450:1.647462876
T_482hevc_no_aspect_ratio_in_sps:bde450fc1c77af9b54c5067230236274-934a3ea4881480b05405d804bf92accd-048e404577a0180d4f03d60479a3c8bd:passed:20150327-125855:0.880932303
T_483select_tracks_by_language:4d890c9c8d74498ada54106524055a5f+1471f00929c0b7e17c6601c905a95810+1471f00929c0b7e17c6601c905a95810+1471f00929c0b7e17c6601c905a95810+bbb2f08d792faaf3fff01ab23b8d850c:passed:20150328-191349:0.156972906
T_484dts_without_core_xll_substream:9b9ef6bc43c26b6d1f56a2d53612d9c6:passed:20150328-221149:0.468020256
T_485dtshd_file_format:8aab5ba7c3ce6c20f90cf1531a112504:passed:20150329-085728:1.683480773
T_486m2ts_eac3_with_extension_in_own_packet:e53cef842dce863c2d1500b57da36ce4:passed:20150329-193642:0.518299841
T_487matroska_version_and_read_version_with_opus:4+2-4+2-4+2-4+1-4+2-4+1-4+1-4+1:passed:20150329-213811:0.670610463
T_488hevc_conformance_window_with_cropping:ec78cb18b77599d2ad4c29272cfb14ac:passed:20150329-220212:0.705828455
T_489dts_es:90572a1083df3406abb0a8ab498eb531-45b32aa6b4527b7c69d6e48bbf554d73-3a7266b90652a1ba15ac0e29f65895e0:passed:20150403-115948:1.604769748
T_490sequence_numbers_no_0_in_first_gop:f6a4727fba35ae506cbe22ce9ca94531:passed:20150411-142423:0.832402022
T_491auto_additional_files_only_with_vts_prefix:83d5dad6a240d49338c7b1fa61134a8e:passed:20150413-202924:0.904251401
T_492truehd_ac3_setting_track_properties:ebd06a8dce76538d4879282ff64aee79-dc2d92ca9c1ce7afde11a54b8a5c0637-ab374507bb93d5280609f519b2c2171d-9ae9c6011815a6f9c397fcd98540865c-2ad8e25e512323c3bd9bfc3e854ffcb6-18dbda1c389781a97a4707d3870509da:passed:20150413-211600:9.416716642
T_493truehd_ac3_setting_track_properties_mpeg_ts:2f7564dac54a172071a51e307796a671-83c38b3e30c43b5ae3646fa232828751-4d4ac9f2351502317b0f00b8595846c5-4ee0bafe978ab494cdc4a2d5144ba1c7-de799d1707c4f479ef618c90ad3d74b1-4e243bf23c44b158b3bb5e75063fef8e:passed:20150413-211707:16.127728072
T_494dont_abort_with_aac_error_proection_specific_config:38d80bfba36f687a6b51217399bb9af5:passed:20150416-092327:0.59008572
T_495default_durataion_and_sync:13ee4f81145f903e27b2522c421ae9e0-04fc7820099b868ad788d79feef2e5c7-f4a06603191f1ca2e2a7661a93add4c6:passed:20150417-213623:0.894261521
T_496segment_size_0:19ec68dca40b5f916a083963e549ed13-f4bbbb7c7918686cd5ed029579aeab9d:passed:20150530-180226:0.051304978
T_497crash_in_base64_decoder:847008d894e4d3f7f50f9078836f1adb:passed:20150601-192215:0.02848152
T_498mp2_misidentification:d723c44fe76de83bfa14fb2373b9e2a6-56c0b04c5fedc63f513f982d1a67d63c:passed:20150610-111131:0.763502595
T_499propedit_tags_and_track_properties:760fcb6372c76030eabb9f13d4fd83a6:passed:20150621-111029:0.162830224
T_500mp4_eac3_fourcc_ec_3:7e071a87d19461eea0a5c0a73ab7f785:passed:20150621-224248:0.192381554
T_501mpeg_ts_pat_and_pmt_crc_errors:1a042dec9ef1546a365b0a20cf41fc54:passed:20150704-110859:0.857051787
T_502ui_locale_sr_RS:650e05c9c091234882980f4c1da05dc4-c46836062cf2370328d27e1b12f7225b:passed:20150829-213708:0.062939538
T_503pcm_in_mkv_varying_samples_per_packet:56e660d46c1324efa4cfaf21d2f81e7a:passed:20151004-215848:0.430291421
T_504dts_96_24_identification:714be08304c623a79718bd4b32e5dc60-5ff730d8c7bf5f6497773257065ae316-af15fa6318a9384ccfee94e1351ef81b:passed:20151006-223804:2.278995107
T_505cisco_talos_can_0036:819208225c50c72a89496a72e85aacff-16f558fe671593a57464e221f02d373e:passed:20151020-161153:0.071686357
T_506cisco_talos_can_0037:c6131aea10e25fd1773f1fb9f84aaede-17a48314cfad29b9dbbc534393ae49b1-6a4dba1ed60e04745383661f06afcde3-9d67ef6e92065acc56314ed1b6d81b49-8d3b397bb0a579b6b41d5b17ecaa62cb-96c7f52ffd31fcbfd3380c3a45f150e1-d22a5317584c556dab8c8ad844d75637-cee1943a5ba323fa0bb490114af96ec5:passed:20151020-161234:0.319298931
T_507rerender_track_headers:7636cbcaa203ba1c8a6b647628001995-ef8223b7f6534a420003b8fead615b42:passed:20151022-104930:2.573204876
T_508splitting_by_parts_with_segment_linking:existence0-true-true-true-existence1-true-true-true-existence2-true-true-true-equality_previous-true-true-equality_next-true-true:passed:20151103-204257:0.111807853
T_509rerender_track_headers_chapters_attachments:4a044d5baea78d875fe61f7d0b7a2842:passed:20151115-230226:0.287840782
T_510propedit_add_attachments_without_meta_seek_present:770103c238a0f502c9ec55f0599d8544:passed:20151121-101043:0.070892905
T_511propedit_ensure_seek_head_exists_at_front:20f53afd94e39f5bbf3f1091eefbe31d:passed:20151129-194025:0.152563199
T_512json_identification:ca389d7ad7ae1cefc1c333dc40e25e12+ok-d6bc41ba31b316b0b8b58200ae3a835a+ok-5a8356fd848b743bf68002660d212f31+ok-02e3092da95838f1b748dc71e452b082+ok-59b766f0bff7eb81a4cddb90be238da2+ok-7ce51ac3ee42b52793b012595947a26b+ok-f773927e8b1958b281902bfd6af0b2ee+ok-fbc959d0617b3fe7787a0f14f8534103+ok-80f113c2508c846ed87a53cd0d0ec40f+ok-f28b00b14769d78e8cf4a54f17634b12+ok-8882963e9d459221b48c0cc246c880ee+ok-95a078142585dd2f790f2e33d2f3ae03+ok-7e55beb396e9da2b4e7dc40f0feaa9c6+ok-b396e0a31cc986cedccbdfc3e81efc25+ok-63b90823a5846240cb838d2c4c85d9d6+ok-100d3563880ec3050601c14ce8b38ac7+ok-4785ed8330c2f251e91ad987c5355909+ok:passed:20151207-223859:1.325386646
T_513vp9_10bit_key_frame_detection:1e4a26603c673deb1d9746fd82cfae6e:passed:20151208-224613:0.267556245
T_514remove_track_statistics_tags_during_remux:66a83393897d332c1b92a4f19db407c1-7b3c88a699de0d61ace93e7bd85fa6ec-d44980c8be40f319fecc9dee77e6276d:passed:20151215-134129:1.426290351
T_515aac_sampling_frequency_8000_is_not_sbr:9cf5af87737a116ac775900327fff502:passed:20151219-130357:0.066237884
T_516hevc_rap_sample_grouping:9dfd76249a4bd57b360e41763414471f:passed:20151228-124607:0.066873869
T_517h264_forbidden_byte_sequence_in_slice_nalu:dd3286c4df52287fde8b06ce3752eb5c:passed:20151228-134333:3.276176597
T_518mlp:d503608ccdc7b0704297613aa897e4cf-aff60662f456f850e8b23adfdf31254d:passed:20151229-134422:0.895368448
T_519truehd:762f9b649e70c8b8a738c9ebdc85c002-762f9b649e70c8b8a738c9ebdc85c002:passed:20151229-135950:3.160459472
T_520truehd_mlp_atmos_detection:933082e71876ab5c89ce44aff9638f0e+true-d034d80ecde122fcfb1026b43a9b7032+true-af66c888721d3db496ddbeef57f7b2b6+true-7651394bf8e7025e83da2372eac987c3+true-11c6f58c45a82dec754d753a32b93e4c+true-100d3563880ec3050601c14ce8b38ac7+true:passed:20151229-160649:2.357134495
T_521mp4_edit_list_constant_offset_with_segment_duration_not_0:931d31236a4b8f35e9aff1d83a821e93:passed:20151228-185646:0.621563048
T_522mpeg_1_2_es_no_start_code_at_beginning:e58483f6c8df68a4b9a0399aa0d90079:passed:20151230-182435:0.299243222
T_523mpeg_ts_pes_size_0:740306e343d82b5914d558fc2e5f8cae-35a8e3a06d95bb550f6e487ed5983955:passed:20151230-221825:1.635929691
T_524mpeg2_misdetected_as_truehd:d9e0fc9e1950d043233788b58badae5a:passed:20160102-222743:1.10526128
T_525truehd_doesnt_start_with_sync_frame:90300695ef1b9a99d4820f1e8432fc61:passed:20160104-205804:0.313378755
T_526propedit_bibliographic_and_terminology_iso_639_2:66a83393897d332c1b92a4f19db407c1-db5d063a6e3c4e6c7dfca5b6eb2de4ae-66a83393897d332c1b92a4f19db407c1-db5d063a6e3c4e6c7dfca5b6eb2de4ae:passed:20160108-105234:0.538417963
T_527quicktime_v1_sound_stsd_zero_values:256ba7770ca037e2a3b008d492ce242d:passed:20160117-112706:0.011153053
T_528handbrake_chapter_uids:e64bfbe441bd1cfa5f4d9507e494d362:passed:20160119-173353:0.051508955
T_529aac_program_config_element_with_empty_comment_at_end:fd4e71e2ad27c56fcb9e674bcf40434b:passed:20160124-120513:0.014071844
T_530avi_negative_video_height:6e1d6de8c240074cefa41cac34dfef29:passed:20160210-170826:0.014806634
T_531simple_chapter_extraction:6b6dccb8f5a4ab488da2f174e0d9450c-6b6dccb8f5a4ab488da2f174e0d9450c-e790f2e02daab6faabf712ccf9877ac2-b832af714e46ad7514e669297320b032-b832af714e46ad7514e669297320b032-59afc62025a19921cfa64280acbbb61c:passed:20160225-223308:0.063513455
T_532chapter_generation_when_appending:bc0509649cf6bd996de952298c64b8f0-abe2564a5f83e356498d6d3aa7bb5d43-9bfe27b6caccc84aa0cf3c2e7edc2e3e+25558d341fc4dbf2251659aacc5381b4+22af82b2cc768b325b131e3adc4539e0+501eaa1b224c81e3cdc9b27b2083e7fe+4746a9d3a5d0a9d23406a0f622a26a55+1da4dafca5cbc8ac1028272f4489195e+78e4acaf9659ec983e65723a77c93faa+ok-09615d258815fe559a48cdd3a92b0c50:passed:20160301-194344:2.04755563
T_533chapter_generation_interval:b38fd494b593415c0c912b7787385c8f-e8fdd71a0c2eafab267d64a3670a03d5-959cd023c9d99ab64923d88ec124f26a+002659c25c5160e148a3746d9c98e18b+50ca6ba85e6c6a0f4869d4dd4ffe74c3+fc70d98661d27caeb9da3699c033e4e0+f8a672314941dfc4b1e459fce441c4d4+f56b06049a12a5dbf4f43bba81344b54+78e4acaf9659ec983e65723a77c93faa+ok-f451135aa0a6eaf53f6c0ee4a82553ac:passed:20160301-194459:2.043516559
T_534chapter_generation_when_appending_audio_only:e9ef498b1e3b823c3eb9fa8051edcb99-ce5b7f5e5c1fcf84847aa060d99cb875-e6674741bcea55181da1398d71fbd77b+e0c024d8ee7f6a6530e2a2f1792540d4+048e6c11e971263864c039e70104368a+92a422ece0353b80086c6135e710f081+102b7bfb1c718a16f45ec6675757226b+e94dffcfe78765d534624265f9586328+49ccc2bd99d0385e40a0e2402cd6d768+ok-4104d402f171b7ba7ada60d414ad8312:passed:20160302-130929:0.645667954
T_535chapter_generation_interval_audio_only:1ac1f2982e4889c62c68f79edb618ac8-4d7d637148d021a68c463f841900e4ba-e6674741bcea55181da1398d71fbd77b+a2996ba90f2997b9a9d837c92d86a2b8+3ac6fd554e6010cdea3dfce8a928e57e+d277d812bdb96237669d7af182d7445e+18557678d36289ef682d3084fc372ccb+023d026da928b942ba0187985ec50c6c+50a1a2067e6c504fa227d7d8cae3dd32+ok-a39f5374cc1d2558738ec5ea04d6bb46:passed:20160302-131002:0.64531153
T_536extract_big_endian_pcm:8969a34f345d2be56d62d809d5b5f90a:passed:20160307-190156:0.015845204
T_537srt_bom_precedence_over_sub_charset:e4b3d5dcb6737c20972400bdfeebeff3-e4b3d5dcb6737c20972400bdfeebeff3-e4b3d5dcb6737c20972400bdfeebeff3-f59312a64dc16213404ce79f0cd8ec06:passed:20160309-180444:0.036282259
T_538teletext_many_packets_same_content:c69f45100cbce3be9d1fe8008458b079:passed:20160316-143840:0.650010976
T_539ui_locale_ko_KR:a78ed3e34c08f449e4e283d206a3c0ef-f1b52c4c680dd605ddfcb99cc02c81a2:passed:20160321-173717:0.024880164
T_540teletext_non_subtitle_pages:538f041c24ef97fa08c6bafef88abd2c:passed:20160324-204239:0.689083841
T_541dts_hd_ma_reduce_to_core_channels:3927ebc5cc3ae82ef7b2454a5f0d3683-6:passed:20160327-145153:0.027630669
T_542h264_interlaced_bottom_field_first:1b1138880f5ef2cabefe39a3aeda11a8:passed:20160329-220636:1.091313714
T_543webvtt:5b950e472a29298ae6df2e253e183fab-8c737791823d141e59d3dfade048ea3c-9daaab54022aa518b13275a912b748de-3aab8c392efd20f2bbf57d01ed9dd165-333c3384f96b7c040eb3b484919e4fce-3ef5fd5fd43c5c7ccd5f88ede63827eb-732c09857c7fdcc96ef36b268ece6907-bcb91b1fff61c966a81ae4a203dd8f10:passed:20160411-210911:0.064454978
T_544X_webvtt:f2c1bcde331379ca76c5e1367d223b71-9588ba9a876ebb8dae61f6ee88f005cb-632288a3409bd1423bf1046db081fcb2-1156c9c5852899af1d5f4b4c592dc3fe-a2aadd343d93e3f3f400b9a4b32cbef2-09b2b283791ecb7401631d640d67d67e-b543cedb3953d783ae9b40ad5d9bc09a-7fabd75caf5b576686cebe878c4f94b1:passed:20160411-215720:0.124747579
T_545avi_incomplete_audio_chunk_at_end:84d5d9f4f5616ed0d67f64129ec5f35d:passed:20160413-193628:1.212335416
T_546teletext_multiple_pages_in_single_track:8a57f2bcbe865f9dda393cbcbe5035ef-52ffabc017ea9e111652cb80a0f7ed8f-c8c9171513cce5d21bff05cb5c2f38d8:passed:20160423-142735:1.833048739
T_547mpeg_ts_ac3_stream_type_0x87:99794a10ef7b15b5dbe001a1f594c3b0-3:passed:20160506-140318:1.513241071
T_548generate_chapters_interval:01dec32d311f8e33305deca81a55b769-70-9fa792dfa6c3b9a2603858d3d211c70b-35-de4324ee9107b195e5e1f9ca09e6f770-24-35693f8a0d7670f812cc4f6d23633639-18-260a2eb27fff574274c5b993c802c115-14-ce94372837bc82dcf7d5cc4a56bd25e4-12-dda2e5f2f556e850629e0d959c9ee6af-10-8713327aba95d03e6f641f28ad57d8a5-9-7c2f590d142c5322c283977e7dbde5bf-8-00a2e000d83df7da5f5c0d90a4c92346-7-3b4f9993c055b363a8cef233342ab9f3-4-a39f5374cc1d2558738ec5ea04d6bb46-3-451829fee6667c5cb232e4682c610bad-2-859315d7aff4114da834477c51fec3c7-2-a12e0f374ce9d77b1fd7a21e1a947b01-2-4104d402f171b7ba7ada60d414ad8312-1:passed:20160515-114928:1.217313158
T_549truehd_96khz_sample_rate:602e88af0765ffb3f237c430d14a76ac:passed:20160627-185805:0.382916063
T_550wavpack4_stream_version_0x410:e49d643978154dd49e7d8ef818cb48db:passed:20160703-121539:0.033436384
T_551deprecated_cctld_codes:a5e0963d2fa4ed1dc6e4a57e81c6ef75-d324ed99629f5752d92e018e52b247cd-5a48a231c2bb2e170ab4497f47d0be72:passed:20160703-145341:0.03512858
T_552chapter_generation_appending_file_name_variables:5eb5082f102135128e9f0df16e82e526:passed:20160710-203404:0.068705137
T_553ogg_kate:5df1fd17fd2e21cfcd959b3e8d8bbc6f-5aaa83458ba9c6365609d7c8eef90b8a-e0085a2b667dd2a47355ee2f2380e9e7-806e6dc4dfb3c3268d32b2dd0dcee806-e5b501aa8ffd4408fb31545cd167721a-a684ae5aabea33b15afab3c82e221e2e-aaa167bd7fe761e3635e660487c313b7-65b8f63974fde6730e005910a0799603-23297de342d544e8b7cc9379aa650794-9ebe2f1a3d9387955707d23f457fd488-e670e7800de0401efc57979cc701e72a-8e517e2fdebef69a1d17d50de06ddfc9-6d8dc279fc4ec2ed9b144aaad9873807-cab5fba5b4a6a4d71d709617a48382f9-02b4e3c56fcd0ddc11fd15d9ed4d7f20-04df25973de0988c99fc78d5238f3024:passed:20160729-134725:0.142644542
T_554ogg_vp8:287871eb5b60484384959f842bc8a905-fc9fc938deefde4975bfa6ab4bd92494:passed:20160729-190454:0.02847642
T_555appending_with_square_brackets:36a6214cde555aa2ea655bb5b28ea008-36a6214cde555aa2ea655bb5b28ea008-36a6214cde555aa2ea655bb5b28ea008-36a6214cde555aa2ea655bb5b28ea008-36a6214cde555aa2ea655bb5b28ea008-36a6214cde555aa2ea655bb5b28ea008:passed:20160730-115423:0.309106233
T_556prores:fec4ef711257d881467a9c20b430e9df-52d0f6381f7e86c58a68e150073c87ab-749fefd03858cf5db61a24bb513c349a-891b3663e94ee1e0282af03d75f2ce4f-9b61f8e10ee1614c374b289a2f70fc44-9b61f8e10ee1614c374b289a2f70fc44:passed:20160806-201730:0.656227356
T_557dts_hd_ma_xll_extension:96000-192000-a9cb6abc8f2ba9e2896797f4ec45eeff-a9cb6abc8f2ba9e2896797f4ec45eeff:passed:20160810-203155:1.196256604
T_558segfaults_issue_1780_part_1:error-error-error-error-error:passed:20160906-210126:0.035867258
T_559segfaults_issue_1780_part_2:error-error-error-error-error-error-error-error-error-error-error-error-error-error-error-error-error-error-error-error-error-error-error-error-error-error-error-error:passed:20160906-225430:0.206571838
T_560segfaults_issue_1780_part_3:3be06a07cf687179597b53848869a486-3be06a07cf687179597b53848869a486-3be06a07cf687179597b53848869a486-3be06a07cf687179597b53848869a486-3be06a07cf687179597b53848869a486-3be06a07cf687179597b53848869a486-3be06a07cf687179597b53848869a486-e52483f75983b811494caa4407f4ff37-0b69a1909e65bfa5b139be5d151984f9-3be06a07cf687179597b53848869a486-18a9ae8fc4fd5b091ef2d4c2c329cf09-45c56a96c2475ab00b201caf576d55c5-19a4e74b9d26216e209a517d28849d3c-3be06a07cf687179597b53848869a486-2c34bde87bf0ca4cda809929f8fdd8d3-6612f01970f6151604d6294afa7d610c-6612f01970f6151604d6294afa7d610c-6612f01970f6151604d6294afa7d610c-6612f01970f6151604d6294afa7d610c-6612f01970f6151604d6294afa7d610c-ok:passed:20160906-225653:0.203842645
T_561segfaults_issue_1780_part_4:error:passed:20160906-225808:0.007751455
T_562segfaults_issue_1780_part_5:error-acf64b0e9d4c9d7e4104f225f64ba0ce-warning:passed:20160906-225922:0.023945323
T_563segfaults_issue_1780_part_6:error-error:passed:20160906-230017:0.014380789
T_564segfaults_issue_1780_part_7:error-error:passed:20160907-203352:0.042010598
T_565hevc_detection_failed_due_to_width_height:a13a9e51370389a59ceff99b3e420cc0-88fb96909a0eca654c9293eafe58e77b:passed:20160911-140155:1.81172957
T_566opus_with_comment_header:998a6bfa1749236844e621ee6577dea7:passed:20160930-100110:0.020105268
T_567propedit_muxing_writing_application:7087ba97938d8b341e678f8ad6d40e36-chunky bacon//47ebd23a2fc307bc63f9d6bc09471f9c:passed:20161006-212023:0.033121037
T_568dts_wav_14_in_16_detection_failures:1e12de517b94cb16d0b1bed16c269f5d-3c77ea407cd3d8b06e1cebb8200b4429:passed:20161009-202725:0.202166541
T_569wav_dts_ac3_track_properties:6f8fedab9873a950095b50bfae5c97ff-0647a19df1ed178023cabfbcd35d27ee-5f4dfbe514746e68f21a6b84c8f08ab3-b74d35c0370d76351ee3a875940bf88f:passed:20161009-213308:0.042866607
T_570h264_misdetected_as_mpeg_ts:d1eeac069538946d9319a7bdb9737d01-9f8bf53592b11f1a6e88c56005a5344c:passed:20161010-181816:0.353216544
T_571bluray_pcm_odd_number_of_channels:3939a114b4491eb3378078f61f5b94be:passed:20161012-204232:0.034162181
T_572hdmv_textst:e5fd36c5ca1ba2e98be27896ae79316d-e5fd36c5ca1ba2e98be27896ae79316d-0f8722f155c1c32f4b58ef8661fea6a1+8cc82c6c73d0a35535d747c00243285c:passed:20161128-164101:0.072007646
T_573teletext_subs_data_unit_id_0x02_and_multiple_magazines:dacc6cae19a2bd9ac671dc484b4ec8e7:passed:20161208-202941:0.037765249
T_574tta_with_apev2_tags:1adb51d484958372f97b683c812a67e8-d199f2164ed24213f0a988e489a10e4b:passed:20161223-210853:0.019411679
T_575mpeg_ts_subtitle_timestamps_way_off_from_video_timestamps:96c3084d0d58d2bf53a4441440734d5c:passed:20170106-200606:0.508113744
T_576codec_delay_in_identification:fac8884af42510b3bedb7745d701cc5e-123000456:passed:20170107-123513:0.075997603
T_577keep_codec_delay_during_remux:fac8884af42510b3bedb7745d701cc5e-123000456+123000456-3c1a13f265d5f11e8e32167c7a877a30-123000456+6500000:passed:20170107-125917:0.21538829
T_578iso639_2_codes_qaa_qad:qaa+qad+qaa+qad-und+und+qaa+qad:passed:20170108-150736:0.249062207
T_579vobsub_in_matroska_without_codecprivate:405065b599ed13549aed6f6a3a4d9a61-8b542724f924a152f6de76317ebcb412:passed:20170122-113531:0.063302008
T_580mp4_dash_moof_after_moov_and_mdat:f1fff7b1ebacc42779b81a28a8419e22:passed:20170127-203233:0.04411854
T_581mp4_multiple_moov_atoms:66936ba41652629cf1c65fc944016c19:passed:20170129-104017:0.104375064
T_582reading_mp4_with_and_without_track_order:fedfd2e0b9c21c282c6c94ecb6787999-fedfd2e0b9c21c282c6c94ecb6787999:passed:20170211-173020:0.065096784
T_583dvbsub_four_bytes_codecprivate:4+4+4-351d2991cf139bb1fe6db31652f9da6f:passed:20170217-183748:0.078521662
T_584ac_3_misdetected_as_mp3:true-8d0eb2c407a645f9925d3f0eca0f9e2a:passed:20170218-123152:0.369584022
T_585h264_wrong_mapping_of_timestamps_to_frames:b029b516547274fa059f9cb467a15072:passed:20170318-172210:0.580192044
T_586h265_invalid_default_display_window_in_sps_vui:d60a90e202c1fc45a8df995c9c3afc44:passed:20170319-185708:0.186032079
T_587X_ssa_ass_shorter_non_standard_event_format:8a247e76b55536c66e8f0c6b03b14de7:passed:20170320-133053:0.011749409
T_588h265_must_copy_bitstream_restriction_info_in_vui_parameters:edf77d6f9686e10bc9e4a21c61146d40:passed:20170330-194958:0.579648793
T_589h264_forcing_default_duration_in_fields_with_source_matroska:1c644d83360d0d981220cac9dd1c8301-40000000+40000000+true-dd27782a264823021a4d9e93a04b84c3-20000000+20000000+true-bbd1569c0948b4a9556197dd9d2b1d05-30000000+30000000+true-9d54449eb8d0528b3d0169f77b7b16d7-60000000+60000000+true-bbb50277fd50e9ea5ee3d9fae453b0f3-20000000+20000000+true:passed:20170331-165013:0.244234938
T_590invalid_track_language_elements:e133bf38abd799464a5f410cb0addc16-14c513a793d4de557a1b5e39841fa9be-8488fd0b4e87c5bb39c10ae1428d254b:passed:20170404-191832:0.036965692
T_591hevc_wrong_number_of_parameter_sets:ec67fbf3dc5d8451315b6f26956e9818:passed:20170412-165246:0.341087191
T_592mpeg_ts_aac_wrong_track_parameters_detected:2aba49d16897beb34f593f9af980cf19:passed:20170412-225238:0.044257474
T_593flac_with_picture_metadata:f6a9bc1da7e19c0ad1468caa8e3e0dfd-b7e4228302fd9c3d6434631e51d2e300-75c40ac9276df20c54dbcbe954c04030-4ff6ec572e785efedaf4c3bd945a3125-a082abba609f947bdadcc2ea4e9f978b:passed:20170415-182414:0.302331784
T_594hevc_split_parts_discarding_start_endless_loop:6c9269fec9623439383a27e1fa794017:passed:20170416-073513:0.635225717
T_595h264_bogus_timing_info:b037baa5001308f7d37fe4141d56d415:passed:20170417-200233:0.368456672
T_596mpeg_ts_aac_loas_latm_misdetected_as_adts:8aab4239438562075b8af19419399cd5:passed:20170424-170304:0.084835812
T_597mpeg_ts_starting_with_avc_start_code:d5222b3439e4260d241cf56e0cbeaaf3:passed:20170510-145746:0.077795359
T_598aac_track_not_listed_in_pmt:1f15159cbd6e402903c7e180cc2184f0-AAC:passed:20170511-221910:0.0849745
T_599mp4_nclx_colour_type_in_colr_atom:7273b810dc03d3c97e162df8fd1e20fe:passed:20170514-203828:0.018287634
T_600mpeg_ts_multiple_programs:dea8dd6bc1080653768f7955f1401959-3f95352b8154040f9991ac996e001fe4-e530d4d7c005d3c56666ef81476ad7d8-f24fcb55479356dbf3e9619ecbdcf8a3:passed:20170522-193901:1.342170107
T_601mp4_mpeg2_via_esds:e0c34382eebed4b260d992ec550a67e9:passed:20170618-150319:0.386032567
T_602vob_with_garbage_at_start:8af88c4ad2e460c323e5e58207b55cf8:passed:20170619-185256:0.236132323
T_603mpeg_ps_ac3_not_enough_data_in_first_packet:1+189+128+AC_3-2+189+129+AC_3-3+189+130+AC_3-4+189+131+AC_3-5+189+132+AC_3-6+189+133+AC_3-7+189+134+AC_3:passed:20170624-092201:0.028142136
T_604append_only_one_video_track_with_codec_private:0de389022964c738d7d5b44ae0963844:passed:20170624-105837:0.144927484
T_605h264_changing_sps_pps_wrong_frame_order_and_timestamps:8f94b3ecd7822578c7ca449095e52709:passed:20170704-211727:0.912982996
T_606aac_960_samples_per_frame:492a1baf607138ab3bfd82d2773da4b6-2975773d480040ecb0662b42f3aad56b:passed:20170720-215449:0.065007779
T_607wave64:e3d6fd4ca2bd4ac1de44759f4a6ea79a-c930ad78a30eff8e8c04ed5f27c6230c:passed:20170721-221321:0.021307011
T_608ui_locale_ro_RO:3a6386df8e8d7aefb9258f070615b27d-0136434e2e22ebcc806ee944cdd2b853:passed:20170722-160005:0.021529144
T_609propedit_video_colour_attributes:5ecead8a931e561da3c3d9c31569fd51+013a60b67bd3a4f3ab14ec005814ad23+97a206ef242ca82194274dc3bae7bfd1+a9dd282a10c2c94f0c073e30588e947b-ac6b1db6964cda828be280e4255bbc97+cf6d65dc1779fdecfea56769e72259be+3131c51a7aad9d38901a50de0104b569+abadf337c84f0116156d17d119ae9f5c:passed:20170803-210425:0.478005629
T_610video_projection:b1cc01cb48f51464f73229fd50615f43-b1cc01cb48f51464f73229fd50615f43-a8bf31a368ce9641ed7952ccd6d423a7:passed:20170813-094000:0.147278453
T_611info_null_pointer_dereference_for_ebmlbinary:68d2ebe0a701fffbcc5b5f245f1abbef:passed:20170813-104016:0.012946476
T_612dts_provided_timestamp_used_too_early:fbdb6b5df6394eb5c2254bcf956932b2:passed:20170813-175153:0.010423057
T_613vorbis_in_mp4:aa83ac60b8f9d9ad485ac4015bf86626:passed:20170910-175618:0.014743465
T_614white_colour_coordinates_from_mkv:e19564eb32670bd2bcc9926c6bdf31b7-e19564eb32670bd2bcc9926c6bdf31b7:passed:20170916-112249:0.094985684
T_615opus_discard_padding_in_the_middle:86650d13cdd4ba9577eb036bf768ee27:passed:20170924-230527:0.025602623
T_616more_than_128_tracks:3c5efa1124d35a15a03fe195f03fa141-3c5efa1124d35a15a03fe195f03fa141:passed:20170925-201313:0.570145315
T_617aac_adts_parse_program_config_element_for_channels:c4278d4a3559723bdb83c825a82dc0ec:passed:20171001-201657:0.037546681
T_618e_ac_3_with_core_and_extensions_in_different_blocks:fb0a0fc618a3cdb7a98e4847c02f488f:passed:20171001-221905:0.044258061
T_619ac_3_misdetected_as_mpeg_ps_and_encrypted:795e9be4c1601e9853378a1fee1bfd01:passed:20171007-172620:0.015403278
T_620ac3_incomplete_frame_with_timestamp_from_matroska:7ca40cab5494b8e0819ad34ede5fb71a:passed:20171014-153427:0.397688103
T_621propedit_remove_date:7087ba97938d8b341e678f8ad6d40e36-ok:passed:20171101-180348:0.062479826
T_622aac_adts_8_channels_no_pce:b50f0ebbe511ccfd6968203e55951e90-ok:passed:20171117-190136:0.053130324
T_623text_files_utf16le_different_line_endings:33d8a4b3cc0cde721fdfef957e7f8f42:passed:20171201-143509:0.014821508
T_624h264_fix_bitstream_timing_info_exactly:a3df17e2567a0fa2d4def094e4f1fe25:passed:20171218-202838:0.084923012
T_625h264_fix_bitstream_timing_info_in_framed_packetizer:9109668d0e519ddf4714c991e3071b9b:passed:20171218-203251:0.018924369
T_626X_avc_two_consecutive_idr_with_same_idr_pic_id:6d023939360f96f54599a4d481cfbde5:passed:20171219-220538:0.009932279
T_627h264_sps_pps_between_slices_of_same_frame:f81d3b78e48caf83a7a6445424da5581:passed:20171221-153453:0.014470407
T_628srt_no_decimal_places:72cb3a3a09eb18f8eebf0ca6bebbfbf3:passed:20180102-191637:0.01673336
T_629mpeg_ts_broken_pes_packets:497c3a917f833295686bd0c2471b7d47:passed:20180113-212211:0.055502835
T_630propedit_add_statistics_tags_with_compression:fdede2a7722ef0880aebea81977ca1f7-18+70+590:passed:20180118-205706:0.041159571
T_631ogg_opus_packet_without_data:e85368f944c0c954f7bbefb352ae60a6:passed:20180210-164242:0.022683445
T_632flv_aac_codec_initialization_more_than_5_bytes:8e7356658d3bac7492a2569ff594db7e:passed:20180222-152609:0.047661003
T_633payload_signalled_but_no_payload_bytes:d4e79b5d295a512b8690cf61cf5737a3:passed:20180304-220823:0.061501973
T_634dialog_normalization_gain_removal:9a438e39ffa72c89a1e9ed940ecf6a0a-5c7588e4be20be2adf8262a5849c5a04-5c7588e4be20be2adf8262a5849c5a04-5c7588e4be20be2adf8262a5849c5a04-2eed32756281880feef7ecaae7d0a9d6-229e6431e786ef0a4755ac2784197858-229e6431e786ef0a4755ac2784197858-229e6431e786ef0a4755ac2784197858-aa91481fb610d3fdc6cce4a5cdc17e46-4996751358eb859de137eb46121de9bc-4996751358eb859de137eb46121de9bc-4996751358eb859de137eb46121de9bc-21b889aab040681e1d6e8a6933a19f17-cad4c07c880efe67d652d1a5409f3bd0-cad4c07c880efe67d652d1a5409f3bd0-cad4c07c880efe67d652d1a5409f3bd0-504958077002be9afd8b645e96e62276-a2a307e0ec0ac8daabab5155e32e1ae0-100f8119f0c1c9ff7eece0d9fb18e015-100f8119f0c1c9ff7eece0d9fb18e015:passed:20180308-204112:0.42426344
T_635propedit_update_doc_type_version:181040794c0287a418f558e46d598b7d-1+1-4+1:passed:20180310-135142:0.138196579
T_636flac_with_id3_tags:c8b37897660d88038c4e6f401fe6c94c:passed:20180310-182917:0.204964643
T_637mp4_8_channels_in_track_headers_but_7_in_codec_specific_config:true:passed:20180322-222201:0.012853536
T_638av1_ivf_webm:dc1b96c3c48ecda7b7da0b41a555af3f-c1050864ce2c49a80ef39bee50da870b-a5add2983081e735d6177c7c7f810e9d-f63ddb67079fdf2b9120e1f257c506c2-d12b160c887cb4061535dc0467bf9c1b-508dc51869e291813e77512a252d1e3b:passed:20180401-164905:0.057717643
T_639vobsub_missing_duration_in_matroska:1da346761ddede951b1f2f5f11cd3f69:passed:20180401-193013:0.014669303
T_640no_date:20fbba5a79a436caa36582e7675c1038:passed:20180427-231324:0.011724657
T_641keep_display_unit:f3c2b4b8f52f2d29025052a6be092451-3+16x9-2392d8546623ab6265c1cdbc1cab4739-0+123x456:passed:20180609-123022:0.062045824
T_642avc_es_clear_internal_buffers_after_reading_headers:0aaf44ccf543a6a739fd79ab74eed9c3:passed:20180613-174520:0.02386315
T_643mpeg_ts_bad_utf8_in_service_names:f967b2bf3fb4265ec723f14eb667bb9a:passed:20180615-172956:0.019394331
T_644mp3_with_discard_padding:e68074afaedbb820210e31e3cf62febc:passed:20180619-214051:0.038730751
T_645ogg_opus_first_timestamp_negative:4b513ca85e1cf12b378eedd07c8b4ffa-78778f6067b903cc326bf0f998f9790b:passed:20180620-185732:0.925863056
T_646ogg_opus_gap_page_missing:c3c8ff65984de89ce37c2f03520ae83f:passed:20180621-154830:0.009743698
T_647recode_textsubs_from_matroska:2e63dc90381d8f5191b852aac6cc3b05-b297cba0182c465fa537abd668f1e6a0:passed:20180621-194122:0.024017386
T_648append_matroska_first_timestamp_not_zero:80d6193277012fde546499d832b4bab3:passed:20180724-210331:0.023501574
T_649unsupported_file_types:ok-ok-ok-ok-ok:passed:20180806-201225:0.045725267
T_650chapter_generation_no_names:65b6db53e376326e7e2f3d1c04caf63d-ok:passed:20180821-140249:0.030599141
T_651sync_chapter_timestamps:840ec2d37a993e2da78c51b05d7c80f0-96a2f405d04267a1d1e62da4d9521a10-809ab88c5f5d48cfaf5f9bcf94b310f5-809ab88c5f5d48cfaf5f9bcf94b310f5-e0869563706cd2a0b3ec8cb65d1d0cd0-6890c5bac2022d3624958b950d36c77e-6890c5bac2022d3624958b950d36c77e-3e619d7ec77e8395eda20d91382df5cc-822141ff77af0c4c4c7a889ec7374190-3cc5d932c804e0bb1808e63501ea3d1e-3cc5d932c804e0bb1808e63501ea3d1e-7b65c3ff93bf15ca36889d4d9cfda9c1-9a6595a1dbab62f1174c4056e0fdba5b-9a6595a1dbab62f1174c4056e0fdba5b-0621718db4ce9cb7ed4c8c5dc843a962-b276bee9b55fc8aa874608bc2863ba46-00f74b92df721cd1dc363deddc4cf6d8-00f74b92df721cd1dc363deddc4cf6d8-f5d087300a71d86b1ca57ab7929758ed-df9f1da488db25294f457e3576ed8a2d-df9f1da488db25294f457e3576ed8a2d-a5e0963d2fa4ed1dc6e4a57e81c6ef75-7f60d2a169cd162d1de5e5df2a191a8a-7f60d2a169cd162d1de5e5df2a191a8a-7f60d2a169cd162d1de5e5df2a191a8a-91cd9376b3245c3e23413889f66333a1-91cd9376b3245c3e23413889f66333a1-91cd9376b3245c3e23413889f66333a1:passed:20180918-223701:2.330201791
T_652quicktime_pcm_in24:7966b3aa89fe38edbf6767e72ec2f24f-true:passed:20181001-103254:0.148687125
T_653X_text_subtitles_without_duration:bb9a055d2fc4f01a4b78bb2c40457168:passed:20181005-185654:0.010177822
T_654text_subtitles_without_duration:ada9aaa1ae07ff6b20fb0618304d0820:passed:20181005-202509:0.012006837
T_655mpeg_ts_teletext_subs_long_gap_until_end_of_display:6027ec285e5c03ec7fa84afea1d57f56:passed:20181005-212927:0.513727609
T_656mpeg_ts_bad_utf8_in_service_names2:544606778297772ea61146bdbd8f1186:passed:20181006-122753:0.020246407
T_657av1_from_mp4:08895840fd959294a31f7cbba8b2d9dd:passed:20181007-220646:0.040201275
T_658X_av1:20347e54bac4d1b0fe82d1f2f6c17c4d+8a967d44a1de7c00bf8be24156802f4f:passed:20181007-225807:0.019174721
T_659av1_timing_info_in_bitstream:b0b31fd8f8f569f7dcb7f29a3960050d-15361e7c74dfdbd59ffe96009b44a63f:passed:20181007-235434:0.016544501
T_660propedit_replace_one_byte_with_ebmlvoid_all_surrounding_elements_coded_size_length_8:a16d7aa5d00d120d20c4c3c718e1b00b:passed:20181020-160502:0.0
T_661av1_in_matroska_by_mkvmerge_28_0_0:66667a5dd1a2cafb3aa37ce41aedfbf7:passed:20181021-225056:0.008359871
T_662cisco_talos_2018_0694:2bacc50e6e28fb2a92d2abf2583405f5:passed:20181025-215511:0.024040919
T_663mp4_wrong_atom_size_in_track_headers:10655836da56b23c7ba3605ae8de239f:passed:20181115-195646:0.046712794
T_664generate_chapters_interval_first_video_timestamp_bigger_than_0:0d0a9cb9f4217a364d401fb4000fdba4-true:passed:20181116-094425:0.14444877
T_665X_aac_program_config_element_in_audio_specific_config:32f312ca1c84ae94c3a90a9c8ff831cf-0838937c228386349fc661bbbae05924:passed:20181121-165428:0.020161455
T_666propedit_update_cues_after_cluster_was_moved:1098cab0332aefe8275b885f0dba7069:passed:20181124-150141:0.066928999
T_667ogg_chapters_use_name_template:8b5c27fdfb8d79b438d179c4845ed460-d30883a76d12e95ddf60efe3b4f6fe0c:passed:20181125-222443:0.019091945
T_668flush_on_close:7087ba97938d8b341e678f8ad6d40e36-e811bbfaa7fabc16d14310db3092dbe3:passed:20190110-220105:0.03641201
T_669ssa_ass_zero_duration:1bbca62bfcc25b7480e8bbfb228f510e-c34beca52c9bf3eac07c5ee6c2eb899b:passed:20190124-143027:0.020726405
